{
    "_id": "gFt2nzQrVgXM9tmJ",
    "data": {
        "attributes": {
            "ac": {
                "value": 10
            },
            "hardness": 0,
            "hasHealth": false,
            "hp": {
                "details": "",
                "max": 0,
                "temp": 0,
                "tempmax": 0,
                "value": 0
            },
            "stealth": {
                "details": "(trained)",
                "value": 13
            }
        },
        "creatureType": "",
        "details": {
            "description": "The footing on this sloped ground appears to be stable at first glance, but the tiny rocks that cover it are loosely packed and prone to slipping.",
            "disable": "DC 20 Survival (trained) to navigate a safe path",
            "isComplex": false,
            "level": 3,
            "reset": "",
            "routine": ""
        },
        "flavourText": "",
        "nethysUrl": "",
        "recallKnowledgeText": "",
        "saves": {
            "fortitude": {
                "rank": 0,
                "saveDetail": "",
                "value": 0
            },
            "reflex": {
                "rank": 0,
                "saveDetail": "",
                "value": 0
            },
            "will": {
                "rank": 0,
                "saveDetail": "",
                "value": 0
            }
        },
        "schema": {
            "version": {
                "value": ""
            }
        },
        "sidebarText": "",
        "source": {
            "value": ""
        },
        "statusEffects": [],
        "traits": {
            "ci": [],
            "di": {
                "custom": "",
                "selected": {},
                "value": []
            },
            "dr": [],
            "dv": [],
            "rarity": {
                "value": "common"
            },
            "size": {
                "value": "med"
            },
            "traits": {
                "custom": "",
                "value": [
                    "environmental"
                ]
            }
        }
    },
    "effects": [],
    "flags": {},
    "img": "systems/pf2e/icons/default-icons/hazard.svg",
    "items": [
        {
            "_id": "DE7tTstJaGz9oAi4",
            "data": {
                "actionCategory": {
                    "value": ""
                },
                "actionType": {
                    "value": "reaction"
                },
                "actions": {
                    "value": ""
                },
                "description": {
                    "chat": "",
                    "unidentified": "",
                    "value": "<p><strong>Trigger</strong> A creature steps on the unstable ground.<br /><strong>Effect</strong> Rocks tumble and slip beneath its feet. The triggering creature must attempt a DC 21 Reflex save as they tumble against the rocks, which deal 2d10+13 bludgeoning damage.<br /><br /><strong>Critical Success</strong> The creature takes no damage.<br /><strong>Success</strong> The creature takes half damage and falls prone in its space.<br /><strong>Failure</strong> The creature takes full damage, falls prone in its space, and tumbles down to the bottom of the slope.<br /><strong>Critical Failure</strong> As failure, but double damage.</p>"
                },
                "requirements": {
                    "value": ""
                },
                "rules": [],
                "slug": null,
                "source": {
                    "value": ""
                },
                "traits": {
                    "custom": "",
                    "rarity": {
                        "value": "common"
                    },
                    "value": []
                },
                "trigger": {
                    "value": ""
                },
                "usage": {
                    "value": "held-in-one-hand"
                },
                "weapon": {
                    "value": ""
                }
            },
            "effects": [],
            "flags": {},
            "img": "systems/pf2e/icons/actions/Reaction.png",
            "name": "Rockslide",
            "sort": 100000,
            "type": "action"
        }
    ],
    "name": "Treacherous Scree",
    "permission": {
        "default": 0
    },
    "token": {
        "actorId": "gFt2nzQrVgXM9tmJ",
        "actorLink": false,
        "bar1": {
            "attribute": "attributes.hp"
        },
        "bar2": {},
        "brightLight": 0,
        "brightSight": 0,
        "dimLight": 0,
        "dimSight": 0,
        "displayBars": 20,
        "displayName": 20,
        "disposition": 0,
        "flags": {},
        "height": 1,
        "img": "systems/pf2e/icons/default-icons/hazard.svg",
        "lightAlpha": 1,
        "lightAngle": 360,
        "lightAnimation": {
            "intensity": 5,
            "speed": 5
        },
        "lockRotation": false,
        "name": "Treacherous Scree",
        "randomImg": false,
        "rotation": 0,
        "scale": 1,
        "sightAngle": 360,
        "tint": null,
        "vision": false,
        "width": 1
    },
    "type": "hazard"
}
