{
    "_id": "YS8UvVGFgHP2TrY3",
    "data": {
        "abilities": {
            "cha": {
                "min": 3,
                "mod": 4,
                "value": 18
            },
            "con": {
                "min": 3,
                "mod": -1,
                "value": 8
            },
            "dex": {
                "min": 3,
                "mod": 2,
                "value": 14
            },
            "int": {
                "min": 3,
                "mod": 3,
                "value": 16
            },
            "str": {
                "min": 3,
                "mod": "+0",
                "value": 10
            },
            "wis": {
                "min": 3,
                "mod": 3,
                "value": 16
            }
        },
        "attributes": {
            "ac": {
                "check": 0,
                "details": "",
                "dex": 0,
                "item": 0,
                "min": 0,
                "value": "19"
            },
            "allSaves": {
                "value": "A shoony's small, blunt snout and labyrinthine sinus system make them resistant to phenomena that assail the nose. When they rolls a saving throw against inhaled threats (such as inhaled poisons) and olfactory effects (such as xulgath stench), they get the outcome one degree of success better than the result of their roll."
            },
            "ancestryhp": 0,
            "bonusEncumbranceBulk": 0,
            "bonusLimitBulk": 0,
            "classDC": {
                "ability": "str",
                "breakdown": "",
                "item": 0,
                "rank": 0,
                "value": 0
            },
            "classhp": 0,
            "flatbonushp": 0,
            "flatbonussp": 0,
            "hp": {
                "details": "",
                "max": 60,
                "min": 0,
                "temp": 0,
                "value": 60
            },
            "init": {
                "bonus": 0,
                "value": 0
            },
            "initiative": {
                "ability": "",
                "circumstance": 0,
                "status": 0
            },
            "levelbonushp": 0,
            "levelbonussp": 0,
            "perception": {
                "ability": "wis",
                "breakdown": "",
                "item": 0,
                "rank": 0,
                "value": 12
            },
            "resolve": {
                "value": 0
            },
            "shield": {
                "ac": 0,
                "brokenThreshold": 0,
                "hardness": 0,
                "max": 0,
                "min": 0,
                "value": 0
            },
            "sp": {
                "details": "",
                "max": 0,
                "min": 0,
                "value": 0
            },
            "speed": {
                "otherSpeeds": [
                    {
                        "type": "Paddler",
                        "value": ""
                    }
                ],
                "value": "25 feet"
            }
        },
        "currency": {
            "cp": {
                "value": 0
            },
            "gp": {
                "value": 0
            },
            "pp": {
                "value": 0
            },
            "sp": {
                "value": 0
            }
        },
        "details": {
            "alignment": {
                "value": "NG"
            },
            "ancestry": {
                "value": ""
            },
            "biography": {
                "public": "",
                "value": ""
            },
            "class": {
                "value": ""
            },
            "creatureType": "",
            "deity": {
                "image": "systems/pf2e/assets/sheet/deity.png",
                "value": ""
            },
            "flavourText": "",
            "heritage": {
                "value": ""
            },
            "keyability": {
                "value": "str"
            },
            "level": {
                "min": 1,
                "value": 4
            },
            "nethysUrl": "",
            "recallKnowledgeText": "",
            "sidebarText": "",
            "source": {
                "value": "Pathfinder #153: Life's Long Shadow pg. 83"
            }
        },
        "martial": {
            "advanced": {
                "breakdown": "",
                "rank": 0,
                "value": 0
            },
            "heavy": {
                "breakdown": "",
                "rank": 0,
                "value": 0
            },
            "light": {
                "breakdown": "",
                "rank": 0,
                "value": 0
            },
            "martial": {
                "breakdown": "",
                "rank": 0,
                "value": 0
            },
            "medium": {
                "breakdown": "",
                "rank": 0,
                "value": 0
            },
            "simple": {
                "breakdown": "",
                "rank": 0,
                "value": 0
            },
            "unarmed": {
                "breakdown": "",
                "rank": 0,
                "value": 0
            },
            "unarmored": {
                "breakdown": "",
                "rank": 0,
                "value": 0
            }
        },
        "saves": {
            "fortitude": {
                "ability": "con",
                "breakdown": "",
                "item": 0,
                "rank": 0,
                "saveDetail": "",
                "value": 9
            },
            "reflex": {
                "ability": "dex",
                "breakdown": "",
                "item": 0,
                "rank": 0,
                "saveDetail": "",
                "value": 10
            },
            "will": {
                "ability": "wis",
                "breakdown": "",
                "item": 0,
                "rank": 0,
                "saveDetail": "",
                "value": 13
            }
        },
        "schema": {
            "version": {
                "value": ""
            }
        },
        "skills": {
            "acr": {
                "ability": "dex",
                "armor": 1,
                "breakdown": "",
                "item": 0,
                "mod": 0,
                "rank": 0,
                "value": 0
            },
            "arc": {
                "ability": "int",
                "breakdown": "",
                "item": 0,
                "mod": 0,
                "rank": 0,
                "value": 0
            },
            "ath": {
                "ability": "str",
                "armor": 1,
                "breakdown": "",
                "item": 0,
                "mod": 0,
                "rank": 0,
                "value": 0
            },
            "cra": {
                "ability": "int",
                "breakdown": "",
                "item": 0,
                "mod": 0,
                "rank": 0,
                "value": 0
            },
            "dec": {
                "ability": "cha",
                "breakdown": "",
                "item": 0,
                "mod": 0,
                "rank": 0,
                "value": 0
            },
            "dip": {
                "ability": "cha",
                "breakdown": "",
                "item": 0,
                "mod": 0,
                "rank": 0,
                "value": 0
            },
            "itm": {
                "ability": "cha",
                "breakdown": "",
                "item": 0,
                "mod": 0,
                "rank": 0,
                "value": 0
            },
            "med": {
                "ability": "wis",
                "breakdown": "",
                "item": 0,
                "mod": 0,
                "rank": 0,
                "value": 0
            },
            "nat": {
                "ability": "wis",
                "breakdown": "",
                "item": 0,
                "mod": 0,
                "rank": 0,
                "value": 0
            },
            "occ": {
                "ability": "int",
                "breakdown": "",
                "item": 0,
                "mod": 0,
                "rank": 0,
                "value": 0
            },
            "prf": {
                "ability": "cha",
                "breakdown": "",
                "item": 0,
                "mod": 0,
                "rank": 0,
                "value": 0
            },
            "rel": {
                "ability": "wis",
                "breakdown": "",
                "item": 0,
                "mod": 0,
                "rank": 0,
                "value": 0
            },
            "soc": {
                "ability": "int",
                "breakdown": "",
                "item": 0,
                "mod": 0,
                "rank": 0,
                "value": 0
            },
            "ste": {
                "ability": "dex",
                "armor": 1,
                "breakdown": "",
                "item": 0,
                "mod": 0,
                "rank": 0,
                "value": 0
            },
            "sur": {
                "ability": "wis",
                "breakdown": "",
                "item": 0,
                "mod": 0,
                "rank": 0,
                "value": 0
            },
            "thi": {
                "ability": "dex",
                "armor": 1,
                "breakdown": "",
                "item": 0,
                "mod": 0,
                "rank": 0,
                "value": 0
            }
        },
        "spells": {
            "spell0": {
                "max": 0
            },
            "spell1": {
                "max": 0
            },
            "spell10": {
                "max": 0
            },
            "spell11": {
                "max": 0
            },
            "spell2": {
                "max": 0
            },
            "spell3": {
                "max": 0
            },
            "spell4": {
                "max": 0
            },
            "spell5": {
                "max": 0
            },
            "spell6": {
                "max": 0
            },
            "spell7": {
                "max": 0
            },
            "spell8": {
                "max": 0
            },
            "spell9": {
                "max": 0
            }
        },
        "statusEffects": [],
        "traits": {
            "ci": [],
            "di": {
                "custom": "",
                "value": []
            },
            "dr": [],
            "dv": [],
            "languages": {
                "custom": "",
                "selected": [],
                "value": [
                    "common",
                    "shoony"
                ]
            },
            "rarity": {
                "value": "rare"
            },
            "senses": {
                "value": "low-light vision"
            },
            "size": {
                "value": "sm"
            },
            "traits": {
                "custom": "",
                "value": [
                    "humanoid",
                    "shoony"
                ]
            }
        }
    },
    "effects": [],
    "flags": {},
    "img": "systems/pf2e/icons/default-icons/npc.svg",
    "items": [
        {
            "_id": "21kqSgCRcr3YntsD",
            "data": {
                "baseItem": null,
                "brokenThreshold": {
                    "value": 0
                },
                "bulkCapacity": {
                    "value": ""
                },
                "collapsed": {
                    "value": false
                },
                "containerId": {
                    "value": ""
                },
                "description": {
                    "chat": "",
                    "unidentified": "",
                    "value": ""
                },
                "equipped": {
                    "value": false
                },
                "equippedBulk": {
                    "value": ""
                },
                "hardness": {
                    "value": 0
                },
                "hp": {
                    "value": 0
                },
                "identification": {
                    "status": "identified"
                },
                "identified": {
                    "value": false
                },
                "invested": {
                    "value": false
                },
                "level": {
                    "value": 0
                },
                "maxHp": {
                    "value": 0
                },
                "negateBulk": {
                    "value": "0"
                },
                "preciousMaterial": {
                    "value": ""
                },
                "preciousMaterialGrade": {
                    "value": ""
                },
                "price": {
                    "value": 0
                },
                "quantity": {
                    "value": 1
                },
                "rules": [],
                "size": {
                    "value": "med"
                },
                "slug": null,
                "source": {
                    "value": ""
                },
                "stackGroup": {
                    "value": ""
                },
                "traits": {
                    "custom": "",
                    "rarity": {
                        "value": "common"
                    },
                    "value": []
                },
                "usage": {
                    "value": "held-in-one-hand"
                },
                "weight": {
                    "value": 0
                }
            },
            "effects": [],
            "flags": {},
            "img": "systems/pf2e/icons/default-icons/equipment.svg",
            "name": "longbow",
            "sort": 100000,
            "type": "equipment"
        },
        {
            "_id": "2QGdsriMqwDT4zz5",
            "data": {
                "baseItem": null,
                "brokenThreshold": {
                    "value": 0
                },
                "bulkCapacity": {
                    "value": ""
                },
                "collapsed": {
                    "value": false
                },
                "containerId": {
                    "value": ""
                },
                "description": {
                    "chat": "",
                    "unidentified": "",
                    "value": ""
                },
                "equipped": {
                    "value": false
                },
                "equippedBulk": {
                    "value": ""
                },
                "hardness": {
                    "value": 0
                },
                "hp": {
                    "value": 0
                },
                "identification": {
                    "status": "identified"
                },
                "identified": {
                    "value": false
                },
                "invested": {
                    "value": false
                },
                "level": {
                    "value": 0
                },
                "maxHp": {
                    "value": 0
                },
                "negateBulk": {
                    "value": "0"
                },
                "preciousMaterial": {
                    "value": ""
                },
                "preciousMaterialGrade": {
                    "value": ""
                },
                "price": {
                    "value": 0
                },
                "quantity": {
                    "value": 1
                },
                "rules": [],
                "size": {
                    "value": "med"
                },
                "slug": null,
                "source": {
                    "value": ""
                },
                "stackGroup": {
                    "value": ""
                },
                "traits": {
                    "custom": "",
                    "rarity": {
                        "value": "common"
                    },
                    "value": []
                },
                "usage": {
                    "value": "held-in-one-hand"
                },
                "weight": {
                    "value": 0
                }
            },
            "effects": [],
            "flags": {},
            "img": "systems/pf2e/icons/default-icons/equipment.svg",
            "name": "staff",
            "sort": 200000,
            "type": "equipment"
        },
        {
            "_id": "ZZdTJTrqMUiQj1UM",
            "data": {
                "attack": {
                    "value": ""
                },
                "attackEffects": {
                    "value": []
                },
                "baseItem": null,
                "bonus": {
                    "value": 9
                },
                "brokenThreshold": {
                    "value": 0
                },
                "bulkCapacity": {
                    "value": ""
                },
                "collapsed": {
                    "value": false
                },
                "containerId": {
                    "value": ""
                },
                "damage": {
                    "damageType": "bludgeoning",
                    "die": "1d4"
                },
                "damageRolls": {
                    "rzoyhta195k5rir00eca": {
                        "damage": "1d4",
                        "damageType": "bludgeoning"
                    }
                },
                "description": {
                    "chat": "",
                    "unidentified": "",
                    "value": ""
                },
                "equipped": {
                    "value": false
                },
                "equippedBulk": {
                    "value": ""
                },
                "hardness": {
                    "value": 0
                },
                "hp": {
                    "value": 0
                },
                "identification": {
                    "status": "identified"
                },
                "identified": {
                    "value": false
                },
                "invested": {
                    "value": false
                },
                "maxHp": {
                    "value": 0
                },
                "negateBulk": {
                    "value": "0"
                },
                "preciousMaterial": {
                    "value": ""
                },
                "preciousMaterialGrade": {
                    "value": ""
                },
                "price": {
                    "value": 0
                },
                "property1": {
                    "critDamage": "",
                    "critDamageType": "",
                    "critDice": 0,
                    "critDie": "",
                    "damageType": "",
                    "dice": 0,
                    "die": "",
                    "value": ""
                },
                "property2": {
                    "critDamage": "",
                    "critDamageType": "",
                    "critDice": 0,
                    "critDie": "",
                    "damageType": "",
                    "dice": 0,
                    "die": "",
                    "value": ""
                },
                "property3": {
                    "critDamage": "",
                    "critDamageType": "",
                    "critDice": 0,
                    "critDie": "",
                    "damageType": "",
                    "dice": 0,
                    "die": "",
                    "value": ""
                },
                "quantity": {
                    "value": 1
                },
                "rules": [],
                "size": {
                    "value": "med"
                },
                "slug": null,
                "source": {
                    "value": ""
                },
                "stackGroup": {
                    "value": ""
                },
                "traits": {
                    "custom": "",
                    "rarity": {
                        "value": "common"
                    },
                    "value": []
                },
                "usage": {
                    "value": "held-in-one-hand"
                },
                "weaponType": {
                    "value": "melee"
                },
                "weight": {
                    "value": 0
                }
            },
            "effects": [],
            "flags": {},
            "img": "systems/pf2e/icons/default-icons/melee.svg",
            "name": "Staff",
            "sort": 300000,
            "type": "melee"
        },
        {
            "_id": "bZ3GybAG2fRwlpiv",
            "data": {
                "attack": {
                    "value": ""
                },
                "attackEffects": {
                    "value": []
                },
                "baseItem": null,
                "bonus": {
                    "value": 11
                },
                "brokenThreshold": {
                    "value": 0
                },
                "bulkCapacity": {
                    "value": ""
                },
                "collapsed": {
                    "value": false
                },
                "containerId": {
                    "value": ""
                },
                "damage": {
                    "damageType": "piercing",
                    "die": "1d8+2"
                },
                "damageRolls": {
                    "qwgaoeij2f86664u4xtg": {
                        "damage": "1d8+2",
                        "damageType": "piercing"
                    }
                },
                "description": {
                    "chat": "",
                    "unidentified": "",
                    "value": ""
                },
                "equipped": {
                    "value": false
                },
                "equippedBulk": {
                    "value": ""
                },
                "hardness": {
                    "value": 0
                },
                "hp": {
                    "value": 0
                },
                "identification": {
                    "status": "identified"
                },
                "identified": {
                    "value": false
                },
                "invested": {
                    "value": false
                },
                "maxHp": {
                    "value": 0
                },
                "negateBulk": {
                    "value": "0"
                },
                "preciousMaterial": {
                    "value": ""
                },
                "preciousMaterialGrade": {
                    "value": ""
                },
                "price": {
                    "value": 0
                },
                "property1": {
                    "critDamage": "",
                    "critDamageType": "",
                    "critDice": 0,
                    "critDie": "",
                    "damageType": "",
                    "dice": 0,
                    "die": "",
                    "value": ""
                },
                "property2": {
                    "critDamage": "",
                    "critDamageType": "",
                    "critDice": 0,
                    "critDie": "",
                    "damageType": "",
                    "dice": 0,
                    "die": "",
                    "value": ""
                },
                "property3": {
                    "critDamage": "",
                    "critDamageType": "",
                    "critDice": 0,
                    "critDie": "",
                    "damageType": "",
                    "dice": 0,
                    "die": "",
                    "value": ""
                },
                "quantity": {
                    "value": 1
                },
                "rules": [],
                "size": {
                    "value": "med"
                },
                "slug": null,
                "source": {
                    "value": ""
                },
                "stackGroup": {
                    "value": ""
                },
                "traits": {
                    "custom": "",
                    "rarity": {
                        "value": "common"
                    },
                    "value": []
                },
                "usage": {
                    "value": "held-in-one-hand"
                },
                "weaponType": {
                    "value": "melee"
                },
                "weight": {
                    "value": 0
                }
            },
            "effects": [],
            "flags": {},
            "img": "systems/pf2e/icons/default-icons/melee.svg",
            "name": "Longbow",
            "sort": 400000,
            "type": "melee"
        },
        {
            "_id": "UE6Gaj3IfXSpVJue",
            "data": {
                "actionCategory": {
                    "value": "offensive"
                },
                "actionType": {
                    "value": "action"
                },
                "actions": {
                    "value": 2
                },
                "description": {
                    "chat": "",
                    "unidentified": "",
                    "value": "<p>The shoony hierarch sparks and launches an alchemically treated arrow that creates a bright light high in the sky. A signal arrow cannot be used to deal damage. Hierarchs carry a number of different arrows that signal different things; a red signal arrow might mean retreat, whereas a green arrow might be a call to gather in the village commons.</p>"
                },
                "requirements": {
                    "value": ""
                },
                "rules": [],
                "slug": null,
                "source": {
                    "value": ""
                },
                "traits": {
                    "custom": "",
                    "rarity": {
                        "value": "common"
                    },
                    "value": []
                },
                "trigger": {
                    "value": ""
                },
                "usage": {
                    "value": "held-in-one-hand"
                },
                "weapon": {
                    "value": ""
                }
            },
            "effects": [],
            "flags": {},
            "img": "systems/pf2e/icons/default-icons/action.svg",
            "name": "Signal Arrow",
            "sort": 500000,
            "type": "action"
        },
        {
            "_id": "6tWJ91QxMK1k4hA0",
            "data": {
                "description": {
                    "chat": "",
                    "unidentified": "",
                    "value": ""
                },
                "item": {
                    "value": 0
                },
                "mod": {
                    "value": 11
                },
                "proficient": {
                    "value": 0
                },
                "rules": [],
                "slug": null,
                "source": {
                    "value": ""
                },
                "traits": {
                    "custom": "",
                    "rarity": {
                        "value": "common"
                    },
                    "value": []
                },
                "usage": {
                    "value": "held-in-one-hand"
                }
            },
            "effects": [],
            "flags": {},
            "img": "systems/pf2e/icons/default-icons/lore.svg",
            "name": "Crafting",
            "sort": 600000,
            "type": "lore"
        },
        {
            "_id": "hiMPrNwpedIXiP70",
            "data": {
                "description": {
                    "chat": "",
                    "unidentified": "",
                    "value": ""
                },
                "item": {
                    "value": 0
                },
                "mod": {
                    "value": 12
                },
                "proficient": {
                    "value": 0
                },
                "rules": [],
                "slug": null,
                "source": {
                    "value": ""
                },
                "traits": {
                    "custom": "",
                    "rarity": {
                        "value": "common"
                    },
                    "value": []
                },
                "usage": {
                    "value": "held-in-one-hand"
                }
            },
            "effects": [],
            "flags": {},
            "img": "systems/pf2e/icons/default-icons/lore.svg",
            "name": "Diplomacy",
            "sort": 700000,
            "type": "lore"
        },
        {
            "_id": "kdH6teRXPVQOdmdp",
            "data": {
                "description": {
                    "chat": "",
                    "unidentified": "",
                    "value": ""
                },
                "item": {
                    "value": 0
                },
                "mod": {
                    "value": 13
                },
                "proficient": {
                    "value": 0
                },
                "rules": [],
                "slug": null,
                "source": {
                    "value": ""
                },
                "traits": {
                    "custom": "",
                    "rarity": {
                        "value": "common"
                    },
                    "value": []
                },
                "usage": {
                    "value": "held-in-one-hand"
                }
            },
            "effects": [],
            "flags": {},
            "img": "systems/pf2e/icons/default-icons/lore.svg",
            "name": "Lore",
            "sort": 800000,
            "type": "lore"
        },
        {
            "_id": "mQcqiopcwYWXDR2K",
            "data": {
                "description": {
                    "chat": "",
                    "unidentified": "",
                    "value": ""
                },
                "item": {
                    "value": 0
                },
                "mod": {
                    "value": 13
                },
                "proficient": {
                    "value": 0
                },
                "rules": [],
                "slug": null,
                "source": {
                    "value": ""
                },
                "traits": {
                    "custom": "",
                    "rarity": {
                        "value": "common"
                    },
                    "value": []
                },
                "usage": {
                    "value": "held-in-one-hand"
                }
            },
            "effects": [],
            "flags": {},
            "img": "systems/pf2e/icons/default-icons/lore.svg",
            "name": "Society",
            "sort": 900000,
            "type": "lore"
        },
        {
            "_id": "YIuilfBOS8m6kphr",
            "data": {
                "description": {
                    "chat": "",
                    "unidentified": "",
                    "value": ""
                },
                "item": {
                    "value": 0
                },
                "mod": {
                    "value": 11
                },
                "proficient": {
                    "value": 0
                },
                "rules": [],
                "slug": null,
                "source": {
                    "value": ""
                },
                "traits": {
                    "custom": "",
                    "rarity": {
                        "value": "common"
                    },
                    "value": []
                },
                "usage": {
                    "value": "held-in-one-hand"
                }
            },
            "effects": [],
            "flags": {},
            "img": "systems/pf2e/icons/default-icons/lore.svg",
            "name": "Survival",
            "sort": 1000000,
            "type": "lore"
        }
    ],
    "name": "Shoony Hierarch",
    "permission": {
        "default": 0
    },
    "token": {
        "actorId": "YS8UvVGFgHP2TrY3",
        "actorLink": false,
        "bar1": {
            "attribute": "attributes.hp"
        },
        "bar2": {},
        "brightLight": 0,
        "brightSight": 0,
        "dimLight": 0,
        "dimSight": 0,
        "displayBars": 20,
        "displayName": 20,
        "disposition": -1,
        "flags": {},
        "height": 1,
        "img": "systems/pf2e/icons/default-icons/npc.svg",
        "lightAlpha": 1,
        "lightAngle": 360,
        "lightAnimation": {
            "intensity": 5,
            "speed": 5
        },
        "lockRotation": false,
        "name": "Shoony Hierarch",
        "randomImg": false,
        "rotation": 0,
        "scale": 1,
        "sightAngle": 360,
        "tint": null,
        "vision": false,
        "width": 1
    },
    "type": "npc"
}
