{
    "_id": "i6y4DiKvqitdE0PW",
    "data": {
        "boosts": {
            "0": {
                "value": [
                    "cha",
                    "con"
                ]
            },
            "1": {
                "value": [
                    "cha",
                    "con",
                    "dex",
                    "int",
                    "str",
                    "wis"
                ]
            }
        },
        "description": {
            "chat": "",
            "unidentified": "",
            "value": "<p><strong>Prerequisite</strong>: Region - Impossible Lands</p>\n<hr />\n<p>Staying alive among the scheming, ravenous undead of Geb required a deep knowledge of their motivations, capabilities, and weaknesses. More often than not, it also required the ability to weave alibis and life-preserving half-truths capable of swaying a stilled heart.</p>\n<p>Choose two ability boosts. One must be to <strong>Charisma</strong> or <strong>Constitution</strong>, and one is a free ability boost.</p>\n<p>You're trained in the Deception skill and the Undead Lore skill. You gain the @Compendium[pf2e.feats-srd.Charming Liar]{Charming Liar}skill feat.</p>"
        },
        "items": {
            "3y6lg": {
                "id": "B6HbYsLBWb1RR6Fx",
                "img": "systems/pf2e/icons/features/feats/feats.jpg",
                "level": "1",
                "name": "Charming Liar",
                "pack": "pf2e.feats-srd"
            }
        },
        "rules": [],
        "source": {
            "value": ""
        },
        "trainedLore": "Undead Lore",
        "trainedSkills": {
            "value": [
                "dec"
            ]
        },
        "traits": {
            "custom": "",
            "rarity": {
                "value": "common"
            },
            "value": []
        }
    },
    "effects": [],
    "flags": {},
    "img": "icons/svg/mystery-man.svg",
    "name": "Quick",
    "permission": {
        "default": 0
    },
    "type": "background"
}
