{
    "_id": "yAtyaKbcHZWCJlf5",
    "data": {
        "boosts": {
            "0": {
                "value": [
                    "dex",
                    "int"
                ]
            },
            "1": {
                "value": [
                    "cha",
                    "con",
                    "dex",
                    "int",
                    "str",
                    "wis"
                ]
            }
        },
        "description": {
            "chat": "",
            "unidentified": "",
            "value": "<p><strong>Prerequisite</strong>: Region - Saga Lands</p>\n<hr />\n<p>You have little love or trust for spellcraft and those who practice it, and have developed a paranoid knack for recognizing such tricks. You are constantly on guard for the magic of witches and have been trained to spot the signs of those with minds affected by magic.</p>\n<p>Choose two ability boosts. One must be to <strong>Dexterity</strong> or <strong>Intelligence</strong>, and one is a free ability boost.</p>\n<p>You're trained in the Occultism skill and the Curse Lore skill. You gain the @Compendium[pf2e.feats-srd.Oddity Identification]{Oddity Identification} skill feat.</p>"
        },
        "items": {
            "5ljyd": {
                "id": "hDGosy2ZTwnyctEP",
                "img": "systems/pf2e/icons/features/feats/feats.jpg",
                "level": "1",
                "name": "Oddity Identification",
                "pack": "pf2e.feats-srd"
            }
        },
        "rules": [],
        "source": {
            "value": ""
        },
        "trainedLore": "Curse Lore",
        "trainedSkills": {
            "value": [
                "occ"
            ]
        },
        "traits": {
            "custom": "",
            "rarity": {
                "value": "common"
            },
            "value": []
        }
    },
    "effects": [],
    "flags": {},
    "img": "icons/svg/mystery-man.svg",
    "name": "Witch Wary",
    "permission": {
        "default": 0
    },
    "type": "background"
}
