{
    "_id": "ZuyzSxmg4QdnZqLy",
    "data": {
        "MAP": {
            "value": ""
        },
        "ability": {
            "value": "str"
        },
        "baseItem": "morningstar",
        "bonus": {
            "value": 2
        },
        "bonusDamage": {
            "value": 0
        },
        "brokenThreshold": {
            "value": 0
        },
        "bulkCapacity": {
            "value": ""
        },
        "collapsed": {
            "value": false
        },
        "containerId": {
            "value": ""
        },
        "damage": {
            "damageType": "bludgeoning",
            "dice": 3,
            "die": "d6",
            "value": ""
        },
        "description": {
            "chat": "",
            "unidentified": "",
            "value": "<p>This hefty spiked club is made from the fossilized tail-club of a young ankylosaurus. It can be wielded as a +2 greater striking morningstar.</p>\n<hr />\n<p><strong>Activate</strong> <span style=\"font-family: 'Pathfinder2eActions'; font-size: 1.8em; display: inline;\">A</span> command</p>\n<p><strong>Effect</strong> The <em>ankylostar</em> grows and transforms into a <em>+2 greater striking greatclub</em>, but it retains the versatile (piercing) trait of a morningstar. While in this form, the <em>ankylostar</em> has Bulk 2 and requires two hands to wield. It can be returned to its morningstar form with another 1-action command.</p>\n<hr />\n<p><strong>Activate</strong> <span style=\"font-family: 'Pathfinder2eActions'; font-size: 1.8em; display: inline;\">D</span> command, Interact</p>\n<p><strong>Frequency</strong> once per day</p>\n<p><strong>Requirements</strong> The <em>ankylostar</em> is in its greatclub form</p>\n<p><strong>Effect</strong> The <em>ankylostar's</em> length extends as you swing the club in a wide arc. You Strike up to three creatures in a 15-foot cone; this counts as one attack for the purpose of calculating your multiple attack penalty. Alternatively, you Shove up to three creatures in a 15-foot cone, rolling a separate Athletics check for each creature.</p>"
        },
        "equipped": {
            "value": false
        },
        "equippedBulk": {
            "value": ""
        },
        "group": {
            "value": "club"
        },
        "hands": {
            "value": ""
        },
        "hardness": {
            "value": 0
        },
        "hp": {
            "value": 0
        },
        "identification": {
            "status": "identified"
        },
        "identified": {
            "value": true
        },
        "invested": {
            "value": false
        },
        "level": {
            "value": 13
        },
        "maxHp": {
            "value": 0
        },
        "negateBulk": {
            "value": "0"
        },
        "potencyRune": {
            "value": "2"
        },
        "preciousMaterial": {
            "value": ""
        },
        "preciousMaterialGrade": {
            "value": ""
        },
        "price": {
            "value": "2,800 gp"
        },
        "property1": {
            "critDamage": "",
            "critDamageType": "",
            "critDice": null,
            "critDie": "",
            "criticalConditionType": "",
            "criticalConditionValue": null,
            "damageType": "",
            "dice": null,
            "die": "",
            "strikeConditionType": "",
            "strikeConditionValue": null,
            "value": ""
        },
        "propertyRune1": {
            "value": ""
        },
        "propertyRune2": {
            "value": ""
        },
        "propertyRune3": {
            "value": ""
        },
        "propertyRune4": {
            "value": ""
        },
        "quantity": {
            "value": 1
        },
        "range": {
            "value": "melee"
        },
        "reload": {
            "value": ""
        },
        "rules": [],
        "size": {
            "value": "med"
        },
        "source": {
            "value": ""
        },
        "splashDamage": {
            "value": null
        },
        "stackGroup": {
            "value": ""
        },
        "strikingRune": {
            "value": "greaterStriking"
        },
        "traits": {
            "custom": "",
            "rarity": {
                "value": "uncommon"
            },
            "value": [
                "magical",
                "transmutation",
                "versatile-p"
            ]
        },
        "usage": {
            "value": "held-in-one-hand"
        },
        "weaponType": {
            "value": "simple"
        },
        "weight": {
            "value": "1"
        }
    },
    "effects": [],
    "flags": {},
    "img": "systems/pf2e/icons/equipment/weapons/specific-magic-weapons/ankylostar.jpg",
    "name": "Ankylostar",
    "permission": {
        "default": 0
    },
    "type": "weapon"
}
