{
    "_id": "o02lg3k1RBoFXVFV",
    "data": {
        "baseItem": null,
        "brokenThreshold": {
            "value": 0
        },
        "bulkCapacity": {
            "value": ""
        },
        "collapsed": {
            "value": false
        },
        "containerId": {
            "value": ""
        },
        "description": {
            "chat": "",
            "unidentified": "",
            "value": "<p>This intricate rune displaces spell energy, granting you a +1 status bonus to saving throws against magical effects.</p>\n<p><strong>Activate</strong> <span style=\"font-family: 'Pathfinder2eActions'; font-size: 1.8em; display: inline;\">R</span> command</p>\n<p><strong>Frequency</strong> once per day</p>\n<p><strong>Trigger</strong> A spell targets you or includes you in its area</p>\n<p><strong>Effect</strong> The armor attempts to counteract the triggering spell with the effect of a 7th-level @Compendium[pf2e.spells-srd.Dispel Magic]{Dispel Magic} spell and a counteract modifier of +26.</p>\n<hr />\n<p><strong>Craft Requirements</strong> Supply one casting of <em>dispel magic</em>.</p>"
        },
        "equipped": {
            "value": false
        },
        "equippedBulk": {
            "value": ""
        },
        "hardness": {
            "value": 0
        },
        "hp": {
            "value": 0
        },
        "identification": {
            "status": "identified"
        },
        "identified": {
            "value": true
        },
        "invested": {
            "value": false
        },
        "level": {
            "value": "15"
        },
        "maxHp": {
            "value": 0
        },
        "negateBulk": {
            "value": ""
        },
        "preciousMaterial": {
            "value": ""
        },
        "preciousMaterialGrade": {
            "value": ""
        },
        "price": {
            "value": "6,500 gp"
        },
        "quantity": {
            "value": "1"
        },
        "rules": [],
        "size": {
            "value": "med"
        },
        "source": {
            "value": ""
        },
        "stackGroup": {
            "value": ""
        },
        "traits": {
            "custom": "",
            "rarity": {
                "value": "uncommon"
            },
            "usage": {
                "value": "etched-onto-armor"
            },
            "value": [
                "abjuration",
                "magical"
            ]
        },
        "usage": {
            "value": "held-in-one-hand"
        },
        "weight": {
            "value": "-"
        }
    },
    "effects": [],
    "flags": {},
    "img": "systems/pf2e/icons/equipment/runes/armor-property-runes/armor-property-runes.jpg",
    "name": "Antimagic",
    "permission": {
        "default": 0
    },
    "type": "equipment"
}
