{
    "_id": "Gyi4IVrAVJRPJF2s",
    "data": {
        "baseItem": null,
        "brokenThreshold": {
            "value": 0
        },
        "bulkCapacity": {
            "value": ""
        },
        "collapsed": {
            "value": false
        },
        "containerId": {
            "value": ""
        },
        "description": {
            "chat": "",
            "unidentified": "",
            "value": "<p><span>These 22 cards of heavy vellum, usually stored in a box or a pouch, bear images or glyphs depicting symbols of magical power. Looking at a card without activating it shows the card face but has no magical effect. Once the deck is face down, the cards randomize themselves-if you look at the top card multiple times, you may find it changes. Any card removed from the deck goes missing after a few seconds, reappearing in the deck.<br /></span></p>\n<p><span><strong>Activate</strong> <span style=\"font-family: 'Pathfinder2eActions'; font-size: 1.8em; display: inline;\">A</span> envision, Interact; <strong>Effect</strong> You declare how many cards you will draw facedown from the deck, then draw your first card. The card takes effect immediately. Any further cards must be drawn within the next hour, and any card you don't voluntarily draw flits off the deck and affects you anyway. You can never activate the same <em>deck of many things</em> again. Once a card is drawn, it produces its effect immediately and then disappears back into the deck, which immediately shuffles itself. (The Dullard and Jester are exceptions, as described in their entries below.) The effects of each card are as follows. </span></p>"
        },
        "equipped": {
            "value": false
        },
        "equippedBulk": {
            "value": ""
        },
        "hardness": {
            "value": 0
        },
        "hp": {
            "value": 0
        },
        "identification": {
            "status": "identified"
        },
        "identified": {
            "value": true
        },
        "invested": {
            "value": false
        },
        "level": {
            "value": "22"
        },
        "maxHp": {
            "value": 0
        },
        "negateBulk": {
            "value": ""
        },
        "preciousMaterial": {
            "value": ""
        },
        "preciousMaterialGrade": {
            "value": ""
        },
        "price": {
            "value": ""
        },
        "quantity": {
            "value": "1"
        },
        "rules": [],
        "size": {
            "value": "med"
        },
        "source": {
            "value": ""
        },
        "stackGroup": {
            "value": ""
        },
        "traits": {
            "custom": "",
            "rarity": {
                "value": "rare"
            },
            "usage": {
                "value": "held-in-one-hand"
            },
            "value": [
                "artifact",
                "magical",
                "transmutation"
            ]
        },
        "usage": {
            "value": "held-in-one-hand"
        },
        "weight": {
            "value": "-"
        }
    },
    "effects": [],
    "flags": {},
    "img": "systems/pf2e/icons/equipment/artifacts/deck-of-many-things.jpg",
    "name": "Deck of Many Things",
    "permission": {
        "default": 0
    },
    "type": "equipment"
}
