{
    "_id": "Dr9b08JhDThUenF9",
    "data": {
        "baseItem": null,
        "brokenThreshold": {
            "value": 0
        },
        "bulkCapacity": {
            "value": ""
        },
        "collapsed": {
            "value": false
        },
        "containerId": {
            "value": ""
        },
        "description": {
            "chat": "",
            "unidentified": "",
            "value": "<p>This string of beads appears to be a hemp string with lustrous red beads of various sizes hanging from it. When activated, it briefly appears in its true form: a golden chain with golden spheres attached by fine threads.</p>\n<p>This necklace has one [[/r 12d6 #fire]], two [[/r 10d6 #fire]] and three [[/r 8d6 #fire]] beads with a Reflex save DC of 30. When all the beads are gone, the necklace becomes a non-magical hemp string.</p>\n<p><strong>Activate</strong> <span style=\"font-family: 'Pathfinder2eActions'; font-size: 1.8em; display: inline;\">A</span> Interact; <strong>Effect</strong> You detach a sphere from the necklace, causing it to glow with orange light. After you activate a sphere, if you or anyone else hurls it (an Interact action with the ranged trait), it detonates as a fireball where it lands. Your toss can place the center of the fireballed trait), it detonates as a fireball where it lands. Your toss can place the center of the fireball anywhere within 70 feet, though at the GM's discretion you might need to make an attack roll if the throw is unusually challenging. If no one hurls the sphere by the start of your next turn, it turns into a non-magical red bead.</p>"
        },
        "equipped": {
            "value": false
        },
        "equippedBulk": {
            "value": ""
        },
        "hardness": {
            "value": 0
        },
        "hp": {
            "value": 0
        },
        "identification": {
            "status": "identified"
        },
        "identified": {
            "value": true
        },
        "invested": {
            "value": false
        },
        "level": {
            "value": "11"
        },
        "maxHp": {
            "value": 0
        },
        "negateBulk": {
            "value": "0"
        },
        "preciousMaterial": {
            "value": ""
        },
        "preciousMaterialGrade": {
            "value": ""
        },
        "price": {
            "value": "700 gp"
        },
        "quantity": {
            "value": "1"
        },
        "rules": [],
        "size": {
            "value": "med"
        },
        "source": {
            "value": ""
        },
        "stackGroup": {
            "value": ""
        },
        "traits": {
            "custom": "",
            "rarity": {
                "value": "common"
            },
            "usage": {
                "value": "worn"
            },
            "value": [
                "evocation",
                "invested",
                "magical"
            ]
        },
        "usage": {
            "value": "held-in-one-hand"
        },
        "weight": {
            "value": "-"
        }
    },
    "effects": [],
    "flags": {},
    "img": "systems/pf2e/icons/equipment/cursed-items/necklace-of-strangulation.jpg",
    "name": "Necklace of Fireballs IV",
    "permission": {
        "default": 0
    },
    "type": "equipment"
}
