{
    "_id": "10CiChAgeSExN7Ie",
    "data": {
        "baseItem": "staff",
        "brokenThreshold": {
            "value": 0
        },
        "bulkCapacity": {
            "value": ""
        },
        "collapsed": {
            "value": false
        },
        "containerId": {
            "value": ""
        },
        "description": {
            "chat": "",
            "unidentified": "",
            "value": "<p>This gnarled staff is covered with thorns and coated with a glistening lacquer that acts as a minor irritant. While holding the staff, you aren't affected by its coating or thorns, and you reduce the DC of your flat checks to overcome persistent poison damage from 15 to 10.</p>\n<hr />\n<p><strong>Activate</strong> @Compendium[pf2e.actionspf2e.Cast a Spell]{Cast a Spell};</p>\n<p><strong>Effect</strong> You expend a number of charges from the staff to cast a spell from its list.</p>\n<p><strong>Craft Requirements</strong> Supply one casting of all listed levels of all listed spells.</p>\n<hr />\n<ul>\n<li><strong>2nd</strong> @Compendium[pf2e.spells-srd.Enhance Victuals]{Enhance Victuals}, @Compendium[pf2e.spells-srd.Imp Sting]{Imp Sting}</li>\n<li><strong>3rd</strong> @Compendium[pf2e.spells-srd.Neutralize Poison]{Neutralize Poison}, @Compendium[pf2e.spells-srd.Stinking Cloud]{Stinking Cloud}</li>\n</ul>"
        },
        "equipped": {
            "value": false
        },
        "equippedBulk": {
            "value": ""
        },
        "hardness": {
            "value": 0
        },
        "hp": {
            "value": 0
        },
        "identification": {
            "status": "identified"
        },
        "identified": {
            "value": true
        },
        "invested": {
            "value": false
        },
        "level": {
            "value": "8"
        },
        "maxHp": {
            "value": 0
        },
        "negateBulk": {
            "value": "0"
        },
        "preciousMaterial": {
            "value": ""
        },
        "preciousMaterialGrade": {
            "value": ""
        },
        "price": {
            "value": "450 gp"
        },
        "quantity": {
            "value": "1"
        },
        "rules": [],
        "size": {
            "value": "med"
        },
        "source": {
            "value": ""
        },
        "stackGroup": {
            "value": ""
        },
        "traits": {
            "custom": "",
            "rarity": {
                "value": "uncommon"
            },
            "usage": {
                "value": "held-in-one-hand"
            },
            "value": [
                "conjuration",
                "magical",
                "necromancy",
                "staff"
            ]
        },
        "usage": {
            "value": "held-in-one-hand"
        },
        "weight": {
            "value": "1"
        }
    },
    "effects": [],
    "flags": {},
    "img": "systems/pf2e/icons/equipment/staves/poisoners-staff.jpg",
    "name": "Poisoner's Staff (Greater)",
    "permission": {
        "default": 0
    },
    "type": "equipment"
}
