{
    "_id": "HEtJeLXMcMbgamxd",
    "data": {
        "baseItem": null,
        "brokenThreshold": {
            "value": 0
        },
        "bulkCapacity": {
            "value": ""
        },
        "collapsed": {
            "value": false
        },
        "containerId": {
            "value": ""
        },
        "description": {
            "chat": "",
            "unidentified": "",
            "value": "<p>Zarmavdian’s spellbook, <em>Thresholds of Truth</em>, was once a straightforward treatise on arcane and occult lore containing several useful spells. It’s been so heavily annotated, however, that the original text is hard to read. It’s clear that Zarmavdian wanted to prevent eldritch creatures from manipulating innocent minds, but his spellbook is a treasure trove for those seeking dangerous or inscrutable lore. The bookseller Morlibint currently keeps this book in his collection at Odd Stories.</p>\n<p>Thresholds of Truth provides access to the @Compendium[pf2e.archetypes.Eldritch Researcher]{Eldritch Researcher} archetype and contains the following spells:</p>\n<hr />\n<p>Cantrips</p>\n<ul>\n<li>@Compendium[pf2e.spells-srd.Chill Touch]{Chill Touch}</li>\n<li>@Compendium[pf2e.spells-srd.Dancing Lights]{Dancing Lights}</li>\n<li>@Compendium[pf2e.spells-srd.Daze]{Daze}</li>\n<li>@Compendium[pf2e.spells-srd.Detect Magic]{Detect Magic}</li>\n<li>@Compendium[pf2e.spells-srd.Electric Arc]{Electric Arc}</li>\n<li>@Compendium[pf2e.spells-srd.Ghost Sound]{Ghost Sound}</li>\n<li>@Compendium[pf2e.spells-srd.Mage Hand]{Mage Hand}</li>\n<li>@Compendium[pf2e.spells-srd.Light]{Light}</li>\n<li>@Compendium[pf2e.spells-srd.Prestidigitation]{Prestidigitation}</li>\n<li>@Compendium[pf2e.spells-srd.Read Aura]{Read Aura}</li>\n<li>@Compendium[pf2e.spells-srd.Shield]{Shield}</li>\n</ul>\n<p>1st Level</p>\n<ul>\n<li>@Compendium[pf2e.spells-srd.Alarm]{Alarm}</li>\n<li>@Compendium[pf2e.spells-srd.Charm]{Charm}</li>\n<li>@Compendium[pf2e.spells-srd.Color Spray]{Color Spray}</li>\n<li>@Compendium[pf2e.spells-srd.Mage Armor]{Mage Armor}</li>\n<li>@Compendium[pf2e.spells-srd.Magic Missile]{Magic Missile}</li>\n<li>@Compendium[pf2e.spells-srd.True Strike]{True Strike}</li>\n<li>@Compendium[pf2e.spells-srd.Unseen Servant]{Unseen Servant}</li>\n</ul>\n<p>2nd Level</p>\n<ul>\n<li>@Compendium[pf2e.spells-srd.Comprehend Language]{Comprehend Language}</li>\n<li>@Compendium[pf2e.spells-srd.Dispel Magic]{Dispel Magic}</li>\n<li>@Compendium[pf2e.spells-srd.False Life]{False Life}</li>\n<li>@Compendium[pf2e.spells-srd.Glitterdust]{Glitterdust}</li>\n<li>@Compendium[pf2e.spells-srd.Web]{Web}</li>\n</ul>\n<p>3rd Level</p>\n<ul>\n<li>@Compendium[pf2e.spells-srd.Haste]{Haste}</li>\n<li>@Compendium[pf2e.spells-srd.Lightning Bolt]{Lightning Bolt}</li>\n<li>@Compendium[pf2e.spells-srd.Locate]{Locate}</li>\n<li>@Compendium[pf2e.spells-srd.Paralyze]{Paralyze}</li>\n<li>@Compendium[pf2e.spells-srd.Slow]{Slow}</li>\n</ul>\n<p>4th Level</p>\n<ul>\n<li>@Compendium[pf2e.spells-srd.Clairvoyance]{Clairvoyance}</li>\n<li>@Compendium[pf2e.spells-srd.Daydreamer's Curse]{Daydreamer's Curse}</li>\n<li>@Compendium[pf2e.spells-srd.Resilient Sphere]{Resilient Sphere}</li>\n</ul>"
        },
        "equipped": {
            "value": false
        },
        "equippedBulk": {
            "value": ""
        },
        "hardness": {
            "value": 0
        },
        "hp": {
            "value": 0
        },
        "identification": {
            "status": "identified"
        },
        "identified": {
            "value": true
        },
        "invested": {
            "value": false
        },
        "level": {
            "value": "0"
        },
        "maxHp": {
            "value": 0
        },
        "negateBulk": {
            "value": "0"
        },
        "preciousMaterial": {
            "value": ""
        },
        "preciousMaterialGrade": {
            "value": ""
        },
        "price": {
            "value": null
        },
        "quantity": {
            "value": "1"
        },
        "rules": [],
        "size": {
            "value": "med"
        },
        "source": {
            "value": ""
        },
        "stackGroup": {
            "value": ""
        },
        "traits": {
            "custom": "",
            "rarity": {
                "value": "unique"
            },
            "usage": {
                "value": "held-in-one-hand"
            },
            "value": []
        },
        "usage": {
            "value": "held-in-one-hand"
        },
        "weight": {
            "value": "L"
        }
    },
    "effects": [],
    "flags": {},
    "img": "systems/pf2e/icons/equipment/other/spellbooks/thresholds-of-truth.jpg",
    "name": "Thresholds of Truth",
    "permission": {
        "default": 0
    },
    "type": "equipment"
}
