{
    "_id": "nZMQh4AaBr291TUf",
    "data": {
        "actionCategory": {
            "value": "defensive"
        },
        "actionType": {
            "value": "reaction"
        },
        "actions": {
            "value": ""
        },
        "description": {
            "chat": "",
            "unidentified": "",
            "value": "<p>Most monsters that serve as mounts can attempt to buck off unwanted or annoying riders, but most mounts will not use this reaction against a trusted creature unless the mounts are spooked or mistreated.</p>\n<p><strong>Trigger</strong> A creature @Compendium[pf2e.actionspf2e.Mount]{Mounts} or uses the @Compendium[pf2e.actionspf2e.Command an Animal]{Command an Animal} action while riding the monster.</p>\n<p><strong>Effect</strong> The triggering creature must succeed at a Reflex saving throw against the listed DC or fall off the creature and land @Compendium[pf2e.conditionitems.Prone]{Prone}. If the save is a critical failure, the triggering creature also takes [[/roll 1d6 #bludgeoning]] bludgeoning damage in addition to the normal damage for the fall.</p>"
        },
        "requirements": {
            "value": ""
        },
        "rules": [],
        "source": {
            "value": ""
        },
        "traits": {
            "custom": "",
            "rarity": {
                "value": "common"
            },
            "value": []
        },
        "trigger": {
            "value": ""
        },
        "weapon": {
            "value": ""
        }
    },
    "effects": [],
    "flags": {},
    "img": "systems/pf2e/icons/actions/Reaction.png",
    "name": "Buck",
    "permission": {
        "default": 0
    },
    "type": "action"
}
