{
    "_id": "axCgEgk7n1yXpgdp",
    "data": {
        "attributes": {
            "ac": {
                "value": 0
            },
            "hardness": 0,
            "hasHealth": true,
            "hp": {
                "details": "",
                "max": 10,
                "temp": 0,
                "tempmax": 0,
                "value": 10
            },
            "stealth": {
                "details": "(Master)",
                "value": 40
            }
        },
        "creatureType": "",
        "details": {
            "description": "The door slams shut, and poison gas fills the room.",
            "disable": "Occultism DC 36 (master) or Religion DC 36 (master) to exorcise the spirits.",
            "isComplex": false,
            "level": 17,
            "reset": "The trap resets after 1 day.",
            "routine": ""
        },
        "flavourText": "",
        "nethysUrl": "",
        "recallKnowledgeText": "",
        "saves": {
            "fortitude": {
                "rank": 0,
                "saveDetail": "",
                "value": null
            },
            "reflex": {
                "rank": 0,
                "saveDetail": "",
                "value": null
            },
            "will": {
                "rank": 0,
                "saveDetail": "",
                "value": null
            }
        },
        "schema": {
            "version": {
                "value": ""
            }
        },
        "sidebarText": "",
        "source": {
            "value": ""
        },
        "statusEffects": [],
        "traits": {
            "ci": [],
            "di": {
                "custom": "",
                "selected": {},
                "value": []
            },
            "dr": [],
            "dv": [],
            "rarity": {
                "value": "common"
            },
            "size": {
                "value": "med"
            },
            "traits": {
                "custom": "",
                "value": [
                    "mechanical"
                ]
            }
        }
    },
    "effects": [],
    "flags": {},
    "img": "systems/pf2e/icons/default-icons/hazard.svg",
    "items": [
        {
            "_id": "RjIX3v1EU84c920i",
            "data": {
                "actionCategory": {
                    "value": ""
                },
                "actionType": {
                    "value": "reaction"
                },
                "actions": {
                    "value": ""
                },
                "description": {
                    "chat": "",
                    "unidentified": "",
                    "value": "<p><strong>Trigger</strong>: A living creature other than an ooze spends at least 3 rounds in the room;</p>\n<p><strong>Effect</strong>: The trap activates and fills the area with caustic nightmare vapor, exposing all creatures within.</p>"
                },
                "requirements": {
                    "value": ""
                },
                "rules": [],
                "slug": null,
                "source": {
                    "value": ""
                },
                "traits": {
                    "custom": "",
                    "rarity": {
                        "value": "common"
                    },
                    "selected": {
                        "conjuration": "Conjuration",
                        "occult": "Occult"
                    },
                    "value": [
                        "conjuration",
                        "occult"
                    ]
                },
                "trigger": {
                    "value": ""
                },
                "usage": {
                    "value": "held-in-one-hand"
                },
                "weapon": {
                    "value": ""
                }
            },
            "effects": [],
            "flags": {},
            "img": "systems/pf2e/icons/actions/Reaction.png",
            "name": "Breath Snatcher",
            "sort": 100000,
            "type": "action"
        },
        {
            "_id": "lcdFqkdanjf6Jdom",
            "data": {
                "actionCategory": {
                    "value": ""
                },
                "actionType": {
                    "value": "passive"
                },
                "actions": {
                    "value": ""
                },
                "description": {
                    "chat": "",
                    "unidentified": "",
                    "value": "<p>Oozes are immune to this poison; Saving Throw DC 38 Fortitude;</p>\n<p><strong>Onset</strong>: 1 round;</p>\n<p><strong>Maximum Duration</strong>: 6 rounds;</p>\n<p><strong>Stage 1</strong>: [[/r 4d6 #acid]] acid damage and @Compendium[pf2e.conditionitems.Confused]{Confused} (1 round);</p>\n<p><strong>Stage 2</strong>: [[/r 6d6 #acid]] acid damage, confused, and @Compendium[pf2e.conditionitems.Flat-Footed]{Flat-Footed} (1 round);</p>\n<p><strong>Stage 3</strong>: [[/r 8d6 #acid]] acid damage, confused, flat-footed, and @Compendium[pf2e.conditionitems.Stupefied]{Stupefied} 2 (1 round)</p>"
                },
                "requirements": {
                    "value": ""
                },
                "rules": [],
                "slug": null,
                "source": {
                    "value": ""
                },
                "traits": {
                    "custom": "",
                    "rarity": {
                        "value": "common"
                    },
                    "selected": {
                        "acid": "Acid",
                        "poison": "Poison"
                    },
                    "value": [
                        "acid",
                        "poison"
                    ]
                },
                "trigger": {
                    "value": ""
                },
                "usage": {
                    "value": "held-in-one-hand"
                },
                "weapon": {
                    "value": ""
                }
            },
            "effects": [],
            "flags": {},
            "img": "systems/pf2e/icons/default-icons/action.svg",
            "name": "Caustic Nightmare Vapor",
            "sort": 200000,
            "type": "action"
        }
    ],
    "name": "Caustic Vapor",
    "permission": {
        "default": 0
    },
    "token": {
        "actorId": "axCgEgk7n1yXpgdp",
        "actorLink": false,
        "bar1": {
            "attribute": "attributes.hp"
        },
        "bar2": {},
        "brightLight": 0,
        "brightSight": 0,
        "dimLight": 0,
        "dimSight": 0,
        "displayBars": 20,
        "displayName": 20,
        "disposition": 0,
        "flags": {},
        "height": 1,
        "img": "systems/pf2e/icons/default-icons/hazard.svg",
        "lightAlpha": 1,
        "lightAngle": 360,
        "lightAnimation": {
            "intensity": 5,
            "speed": 5
        },
        "lockRotation": false,
        "name": "Caustic Vapor",
        "randomImg": false,
        "rotation": 0,
        "scale": 1,
        "sightAngle": 360,
        "tint": null,
        "vision": false,
        "width": 1
    },
    "type": "hazard"
}
