{
    "_id": "zqKzWGLODgIvtiKf",
    "data": {
        "description": {
            "chat": "",
            "unidentified": "",
            "value": "<p>Granted by @Compendium[pf2e.equipment-srd.Spellguard Blade]{Spellguard Blade}</p>\n<hr />\n<p>Automatically applied effects:</p>\n<ul>\n<li>+1 circumstance bonus to AC</li>\n<li>+1 circumstance bonus to saving throws against spells</li>\n</ul>"
        },
        "duration": {
            "expiry": "turn-start",
            "sustained": false,
            "unit": "rounds",
            "value": 1
        },
        "level": {
            "value": 7
        },
        "rules": [
            {
                "key": "PF2E.RuleElement.FlatModifier",
                "label": "Spellguard Blade (vs. spells)",
                "predicate": {
                    "all": [
                        "spell"
                    ]
                },
                "selector": "saving-throw",
                "type": "circumstance",
                "value": 1
            },
            {
                "key": "PF2E.RuleElement.FlatModifier",
                "selector": "ac",
                "type": "circumstance",
                "value": 1
            },
            {
                "key": "PF2E.RuleElement.TokenEffectIcon"
            }
        ],
        "source": {
            "value": ""
        },
        "start": {
            "initiative": null,
            "value": 0
        },
        "traits": {
            "custom": "",
            "rarity": {
                "value": "common"
            },
            "value": []
        }
    },
    "effects": [],
    "flags": {},
    "img": "systems/pf2e/icons/equipment/weapons/specific-magic-weapons/spellguard-blade.jpg",
    "name": "Effect: Spellguard Blade",
    "permission": {
        "default": 0
    },
    "type": "effect"
}
