{
    "_id": "gDefAEEMXVVZgqXH",
    "data": {
        "description": {
            "chat": "",
            "unidentified": "",
            "value": "<p>Granted by @Compendium[pf2e.equipment-srd.Celestial Armor]{Celestial Armor}.</p>\n<p>Automatically applied effects:</p>\n<ul>\n<li>Gain a Fly speed of 30 feet</li>\n</ul>"
        },
        "duration": {
            "expiry": "turn-start",
            "sustained": false,
            "unit": "minutes",
            "value": 10
        },
        "level": {
            "value": 13
        },
        "rules": [
            {
                "key": "PF2E.RuleElement.TokenEffectIcon"
            },
            {
                "key": "PF2E.RuleElement.BaseSpeed",
                "selector": "fly",
                "value": 30
            }
        ],
        "source": {
            "value": ""
        },
        "start": {
            "initiative": null,
            "value": 0
        },
        "traits": {
            "custom": "",
            "rarity": {
                "value": "common"
            },
            "value": []
        }
    },
    "effects": [],
    "flags": {},
    "img": "systems/pf2e/icons/equipment/armor/specific-magic-armor/celestial-armor.jpg",
    "name": "Effect: Celestial Armor",
    "permission": {
        "default": 0
    },
    "type": "effect"
}
