{
    "_id": "qVKrrKpTghgMIuGH",
    "data": {
        "description": {
            "chat": "",
            "unidentified": "",
            "value": "<p>Granted by @Compendium[pf2e.equipment-srd.Antiplague (Major)]{Antiplague (Major)}</p>\n<p>Implemented effects:</p>\n<ul>\n<li>+4 item bonus to Fortitude saves against diseases</li>\n</ul>\n<p>Unimplemented effects:</p>\n<ul>\n<li>Immediately attempt a saving throw against one disease of 14th level or lower affecting you. If you succeed, you are cured of the disease.</li>\n</ul>"
        },
        "duration": {
            "expiry": "turn-start",
            "sustained": false,
            "unit": "hours",
            "value": 24
        },
        "level": {
            "value": 14
        },
        "rules": [
            {
                "key": "PF2E.RuleElement.FlatModifier",
                "label": "Antiplague Major(vs. disease)",
                "predicate": {
                    "all": [
                        "disease"
                    ]
                },
                "selector": "fortitude",
                "type": "item",
                "value": 4
            },
            {
                "key": "PF2E.RuleElement.TokenEffectIcon"
            }
        ],
        "source": {
            "value": ""
        },
        "start": {
            "initiative": null,
            "value": 0
        },
        "traits": {
            "custom": "",
            "rarity": {
                "value": "common"
            },
            "value": []
        }
    },
    "effects": [],
    "flags": {},
    "img": "systems/pf2e/icons/equipment/alchemical-items/alchemical-elixirs/antiplague.jpg",
    "name": "Effect: Antiplague (Major)",
    "permission": {
        "default": 0
    },
    "type": "effect"
}
