{
    "_id": "16tOZk4qy329s2aK",
    "data": {
        "description": {
            "chat": "",
            "unidentified": "",
            "value": "<p>Granted by @Compendium[pf2e.equipment-srd.Shielding Salve]{Shielding Salve}</p>\n<hr />\n<p>Auomatically applied effects:</p>\n<ul>\n<li>gain a +1 circumstance bonus to AC</li>\n</ul>"
        },
        "duration": {
            "expiry": "turn-start",
            "sustained": false,
            "unit": "rounds",
            "value": 1
        },
        "level": {
            "value": 1
        },
        "rules": [
            {
                "key": "PF2E.RuleElement.FlatModifier",
                "selector": "ac",
                "type": "circumstance",
                "value": 1
            },
            {
                "key": "PF2E.RuleElement.TokenEffectIcon"
            }
        ],
        "source": {
            "value": ""
        },
        "start": {
            "initiative": null,
            "value": 0
        },
        "traits": {
            "custom": "",
            "rarity": {
                "value": "common"
            },
            "value": []
        }
    },
    "effects": [],
    "flags": {},
    "img": "systems/pf2e/icons/equipment/consumables/oils/shielding-salve.jpg",
    "name": "Effect: Shielding Salve",
    "permission": {
        "default": 0
    },
    "type": "effect"
}
