{
    "_id": "lt9bQDI7ZXPA7wPw",
    "data": {
        "actionCategory": {
            "value": ""
        },
        "actionType": {
            "value": "passive"
        },
        "actions": {
            "value": ""
        },
        "description": {
            "chat": "",
            "unidentified": "",
            "value": "<p>You gain one barbarian feat. For the purpose of meeting its prerequisites, your barbarian level is equal to half your character level.</p>\n<hr />\n<p><strong>Special</strong> You can select this feat more than once. Each time you select it, you gain another barbarian feat.</p>"
        },
        "featType": {
            "value": "archetype"
        },
        "level": {
            "value": 6
        },
        "prerequisites": [
            "Basic Fury"
        ],
        "rules": [],
        "source": {
            "value": ""
        },
        "traits": {
            "custom": "",
            "rarity": {
                "value": "common"
            },
            "value": [
                "archetype"
            ]
        }
    },
    "effects": [],
    "flags": {},
    "img": "systems/pf2e/icons/features/feats/feats.jpg",
    "name": "Advanced Fury",
    "permission": {
        "default": 0
    },
    "type": "feat"
}
