{
    "_id": "z8bozNJvUjBoKLPA",
    "data": {
        "actionCategory": {
            "value": ""
        },
        "actionType": {
            "value": "passive"
        },
        "actions": {
            "value": ""
        },
        "description": {
            "chat": "",
            "unidentified": "",
            "value": "<p>You can sense the presence of the supernatural, even if you don't have any magical ability yourself. You can spend a single action (this action has the concentrate trait) to determine if any magical auras are present in the area. This has the effects of a 1st-level @Compendium[pf2e.spells-srd.Detect Magic]{Detect Magic} spell but isn't magical. By straining, you can also discover the source of the magic and its school (with the effect of a 4th-level <em>detect magic</em> spell), but doing so prevents you from using this ability again until you've rested for 8 hours.</p>"
        },
        "featType": {
            "value": "archetype"
        },
        "level": {
            "value": "6"
        },
        "prerequisites": {
            "value": [
                "Edgewatch Detective Dedication"
            ]
        },
        "rules": [],
        "source": {
            "value": ""
        },
        "traits": {
            "custom": "",
            "rarity": {
                "value": "common"
            },
            "selected": {
                "archetype": "Archetype"
            },
            "value": [
                "archetype"
            ]
        }
    },
    "effects": [],
    "flags": {},
    "img": "systems/pf2e/icons/features/feats/feats.jpg",
    "name": "Arcane Sensitivity",
    "permission": {
        "default": 0
    },
    "type": "feat"
}
