{
    "_id": "v482u7QboZEbhgvv",
    "data": {
        "actionCategory": {
            "value": ""
        },
        "actionType": {
            "value": "passive"
        },
        "actions": {
            "value": ""
        },
        "description": {
            "chat": "",
            "unidentified": "",
            "value": "<p>You can cover for a secondary caster's error. If you are the primary caster, after rolling all the secondary checks, choose one check on which the secondary caster rolled a failure or critical failure, and treat the result as one degree of success better.</p>"
        },
        "featType": {
            "value": "archetype"
        },
        "level": {
            "value": "10"
        },
        "prerequisites": {
            "value": [
                "Flexible Ritualist"
            ]
        },
        "rules": [],
        "source": {
            "value": ""
        },
        "traits": {
            "custom": "",
            "rarity": {
                "value": "common"
            },
            "value": [
                "archetype"
            ]
        }
    },
    "effects": [],
    "flags": {},
    "img": "systems/pf2e/icons/features/feats/feats.jpg",
    "name": "Assured Ritualist",
    "permission": {
        "default": 0
    },
    "type": "feat"
}
