{
    "_id": "cMkpLgadlLCzDOv0",
    "data": {
        "actionCategory": {
            "value": ""
        },
        "actionType": {
            "value": "action"
        },
        "actions": {
            "value": "3"
        },
        "description": {
            "value": "<p><strong>Frequency</strong> once per day</p>\n<p>You call out to the Godclaw to heal your allies. You cast the 3-action version of heal, heightened to a level 1 lower than half your level rounded up. You can select up to four creatures in the area to remain unaffected by the spell. You can instead use this ability to bring a creature within 30 feet that has died within the last round back from the dead. If you do, the creature is restored to 1 Hit Point and is doomed 1 for 24 hours.</p>"
        },
        "featType": {
            "value": "bonus"
        },
        "level": {
            "value": 0
        },
        "location": "",
        "prerequisites": [
            "Order of the Godclaw"
        ],
        "rules": [],
        "source": {
            "value": ""
        },
        "traits": {
            "custom": "",
            "rarity": {
                "value": "common"
            },
            "value": [
                "concentrate",
                "divine",
                "healing",
                "manipulate",
                "necromancy",
                "positive"
            ]
        }
    },
    "effects": [],
    "flags": {},
    "img": "systems/pf2e/icons/default-icons/feat.svg",
    "name": "Blessings of the Five",
    "permission": {
        "default": 0
    },
    "type": "feat"
}
