{
    "_id": "tKaesXO5nlZ2sspx",
    "data": {
        "actionCategory": {
            "value": ""
        },
        "actionType": {
            "value": "passive"
        },
        "actions": {
            "value": ""
        },
        "description": {
            "chat": "",
            "unidentified": "",
            "value": "<p>When focused on finding your quarry, you're relentless. You gain the @Compendium[pf2e.actionspf2e.Hunt Prey]{Hunt Prey} action. You can use Hunt Prey to designate only a creature that you've seen, heard about, or learned about through some other means, such as a bounty board or wanted poster. In addition to the other benefits of Hunt Prey, you gain a +2 circumstance bonus to checks to @Compendium[pf2e.actionspf2e.Gather Information]{Gather Information} regarding your prey.</p>\n<p>If you already have Hunt Prey, you become an expert in Survival and gain the circumstance bonus to Gather Information about your prey; you can still designate a creature you're tracking during exploration, in addition to the conditions above.</p>\n<p><strong>Special</strong> You can't select another dedication feat until you have gained two other feats from the bounty hunter archetype.</p>"
        },
        "featType": {
            "value": "archetype"
        },
        "level": {
            "value": "2"
        },
        "prerequisites": {
            "value": [
                "trained in Survival"
            ]
        },
        "rules": [],
        "source": {
            "value": ""
        },
        "traits": {
            "custom": "",
            "rarity": {
                "value": "common"
            },
            "value": [
                "archetype",
                "dedication"
            ]
        }
    },
    "effects": [],
    "flags": {},
    "img": "systems/pf2e/icons/features/feats/feats.jpg",
    "name": "Bounty Hunter Dedication",
    "permission": {
        "default": 0
    },
    "type": "feat"
}
