{
    "_id": "0PcVi7eav6PMLOPl",
    "data": {
        "actionCategory": {
            "value": ""
        },
        "actionType": {
            "value": "passive"
        },
        "actions": {
            "value": ""
        },
        "description": {
            "chat": "",
            "unidentified": "",
            "value": "<p>You can remove conditions with divine grace.</p>\n<p>You can sacrifice one @Compendium[pf2e.spells-srd.Heal]{Heal} spell you've prepared in your extra slots from healing font to cast one of the following spells instead: @Compendium[pf2e.spells-srd.Remove Curse]{Remove Curse}, @Compendium[pf2e.spells-srd.Remove Disease]{Remove Disease}, @Compendium[pf2e.spells-srd.Remove Paralysis]{Remove Paralysis}, or @Compendium[pf2e.spells-srd.Restoration]{Restoration}. The spell is heightened to the same level as the heal spell you sacrificed.</p>"
        },
        "featType": {
            "value": "class"
        },
        "level": {
            "value": 8
        },
        "location": "",
        "prerequisites": [
            "healing font"
        ],
        "rules": [],
        "source": {
            "value": ""
        },
        "traits": {
            "custom": "",
            "rarity": {
                "value": "common"
            },
            "value": [
                "cleric"
            ]
        }
    },
    "effects": [],
    "flags": {},
    "img": "systems/pf2e/icons/features/feats/feats.jpg",
    "name": "Channeled Succor",
    "permission": {
        "default": 0
    },
    "type": "feat"
}
