{
    "_id": "D1o7GUraoFFzjaub",
    "data": {
        "actionCategory": {
            "value": ""
        },
        "actionType": {
            "value": "reaction"
        },
        "actions": {
            "value": ""
        },
        "description": {
            "chat": "",
            "unidentified": "",
            "value": "<p><strong>Trigger</strong> Your @Compendium[pf2e.actionspf2e.Strike]{Strike} critically hits and deals damage to a creature you've identified with @Compendium[pf2e.actionspf2e.Recall Knowledge (Lore)]{Recall Knowledge}</p>\n<hr />\n<p>Your battle tactics are aided by your assessment of your foes' capabilities, allowing you to instantly adjust your movements to maximum advantage.</p>\n<p>You @Compendium[pf2e.actionspf2e.Step]{Step} or @Compendium[pf2e.actionspf2e.Stride]{Stride}; this movement doesn't trigger reactions from the triggering creature.</p>"
        },
        "featType": {
            "value": "class"
        },
        "level": {
            "value": "2"
        },
        "prerequisites": {
            "value": [
                "mastermind racket"
            ]
        },
        "rules": [],
        "source": {
            "value": ""
        },
        "traits": {
            "custom": "",
            "rarity": {
                "value": "common"
            },
            "value": [
                "rogue"
            ]
        }
    },
    "effects": [],
    "flags": {},
    "img": "systems/pf2e/icons/features/feats/feats.jpg",
    "name": "Clever Gambit",
    "permission": {
        "default": 0
    },
    "type": "feat"
}
