{
    "_id": "NrZt98r47sPSQ06j",
    "data": {
        "actionCategory": {
            "value": ""
        },
        "actionType": {
            "value": "passive"
        },
        "actions": {
            "value": ""
        },
        "description": {
            "chat": "",
            "unidentified": "",
            "value": "<p>Your study of crystals and the energies held within a gem's facets grants you special arcane crystal ward spells, which are a type of focus spell. It costs 1 Focus Point to cast a focus spell, and you start with a focus pool of 1 Focus Point. You refill your focus pool when you make your next daily preparations, and you can regain 1 Focus Point by spending 10 minutes using the Refocus activity to research and memorize the properties of gems.</p>\n<p>Focus spells are automatically heightened to half your level rounded up. Certain feats can give you more focus spells and increase the size of your focus pool, though your focus pool can never hold more than 3 Focus Points. You gain the @Compendium[pf2e.spells-srd.Electrified Crystal Ward]{Electrified Crystal Ward} focus spell, and you are trained in arcane spell attack rolls and spell DCs. Your spellcasting ability is Intelligence.</p>"
        },
        "featType": {
            "value": "archetype"
        },
        "level": {
            "value": "4"
        },
        "prerequisites": {
            "value": [
                "Crystal Keeper Dedication"
            ]
        },
        "rules": [],
        "source": {
            "value": ""
        },
        "traits": {
            "custom": "",
            "rarity": {
                "value": "common"
            },
            "value": [
                "archetype"
            ]
        }
    },
    "effects": [],
    "flags": {},
    "img": "systems/pf2e/icons/features/feats/feats.jpg",
    "name": "Crystal Ward Spells",
    "permission": {
        "default": 0
    },
    "type": "feat"
}
