{
    "_id": "SlMkuKMny7hWdNxL",
    "data": {
        "actionCategory": {
            "value": ""
        },
        "actionType": {
            "value": "passive"
        },
        "actions": {
            "value": ""
        },
        "description": {
            "chat": "",
            "unidentified": "",
            "value": "<p>When you compound @Compendium[pf2e.classfeatures.Panache]{Panache} with even more derring-do, it somehow tends to work out.</p>\n<p>When you already have panache, you can roll twice and use the higher result on checks to which the circumstance bonus for having panache applies (@Compendium[pf2e.actionspf2e.Tumble Through]{Tumble Through} and any skill actions listed in your swashbuckler's style).</p>"
        },
        "featType": {
            "value": "class"
        },
        "level": {
            "value": "10"
        },
        "prerequisites": {
            "value": [
                ""
            ]
        },
        "rules": [],
        "source": {
            "value": ""
        },
        "traits": {
            "custom": "",
            "rarity": {
                "value": "common"
            },
            "value": [
                "fortune",
                "swashbuckler"
            ]
        }
    },
    "effects": [],
    "flags": {},
    "img": "systems/pf2e/icons/features/feats/feats.jpg",
    "name": "Derring-do",
    "permission": {
        "default": 0
    },
    "type": "feat"
}
