{
    "_id": "t3btih0O5RUwWynt",
    "data": {
        "actionCategory": {
            "value": ""
        },
        "actionType": {
            "value": "passive"
        },
        "actions": {
            "value": ""
        },
        "description": {
            "chat": "",
            "unidentified": "",
            "value": "<p>You often smuggle things past the authorities.</p>\n<p>When the GM rolls your Stealth check to see if a passive observer notices a small item you have concealed, the GM uses the number rolled or 10 - whichever is higher - as the result of your die roll, adding it to your Stealth modifier to determine your Stealth check result.</p>\n<p>If you're a master in Stealth, the GM uses the number rolled or 15, and if you're legendary in Stealth, you automatically succeed at hiding a small concealed item from passive observers.</p>\n<p>This provides no benefits when a creature attempts a Perception check while actively searching you for hidden items.</p>\n<p>Due to your smuggling skill, you're more likely to find more lucrative smuggling jobs when using Underworld Lore to Earn Income.</p>\n<hr />\n<p><strong>PFS Note</strong>: This feat allows you to Earn Income with Underworld Lore with tasks of your level -1 (instead of the normal level -2).</p>"
        },
        "featType": {
            "value": "skill"
        },
        "level": {
            "value": 1
        },
        "location": "",
        "prerequisites": {
            "value": [
                "Trained in Stealth"
            ]
        },
        "rules": [],
        "source": {
            "value": ""
        },
        "traits": {
            "custom": "",
            "rarity": {
                "value": "common"
            },
            "value": [
                "general",
                "skill"
            ]
        }
    },
    "effects": [],
    "flags": {},
    "img": "systems/pf2e/icons/features/feats/feats.jpg",
    "name": "Experienced Smuggler",
    "permission": {
        "default": 0
    },
    "type": "feat"
}
