{
    "_id": "mwZzcwYVcTvxbXDl",
    "data": {
        "actionCategory": {
            "value": ""
        },
        "actionType": {
            "value": "passive"
        },
        "actions": {
            "value": ""
        },
        "description": {
            "chat": "",
            "unidentified": "",
            "value": "<p>You show off your fighting style to discourage your foes. You can use Performance to @Compendium[pf2e.actionspf2e.Demoralize]{Demoralize}.</p>"
        },
        "featType": {
            "value": "skill"
        },
        "level": {
            "value": 4
        },
        "prerequisites": [
            "Gladiator Dedication",
            "expert in Performance"
        ],
        "rules": [],
        "source": {
            "value": ""
        },
        "traits": {
            "custom": "",
            "rarity": {
                "value": "common"
            },
            "value": [
                "archetype",
                "skill"
            ]
        }
    },
    "effects": [],
    "flags": {},
    "img": "systems/pf2e/icons/features/feats/feats.jpg",
    "name": "Fancy Moves",
    "permission": {
        "default": 0
    },
    "type": "feat"
}
