{
    "_id": "zwqawaXccARDV0jL",
    "data": {
        "actionCategory": {
            "value": ""
        },
        "actionType": {
            "value": "passive"
        },
        "actions": {
            "value": ""
        },
        "description": {
            "chat": "",
            "unidentified": "",
            "value": "<p>To blend in with the grounded and wingless, you fold your wings just so on your back, creating the illusion of a feathered cloak. You receive a +2 circumstance bonus to Deception checks to Impersonate a version of yourself who is not a strix. Additionally, your folded wings help you obscure objects on your person, providing a +2 circumstance bonus to Stealth checks to Conceal an Object.</p>"
        },
        "featType": {
            "value": "ancestry"
        },
        "level": {
            "value": 5
        },
        "location": "",
        "prerequisites": [],
        "rules": [],
        "source": {
            "value": ""
        },
        "traits": {
            "custom": "",
            "rarity": {
                "value": "common"
            },
            "value": [
                "strix"
            ]
        },
        "usage": {
            "value": ""
        }
    },
    "effects": [],
    "flags": {},
    "img": "systems/pf2e/icons/features/feats/feats.jpg",
    "name": "Feathered Cloak",
    "permission": {
        "default": 0
    },
    "type": "feat"
}
