{
    "_id": "0YXRPqCaOQ3G73hh",
    "data": {
        "actionCategory": {
            "value": ""
        },
        "actionType": {
            "value": "passive"
        },
        "actions": {
            "value": ""
        },
        "description": {
            "chat": "",
            "unidentified": "",
            "value": "<p>You are adept at disguising coded messages as folksy idioms. Using slang, jokes, halfling loanwords, and the like, you convey a simple message consisting of three basic words (such as \"Danger assassin flee\" or \"Meet me moonrise\").</p>\n<p>Your intended listener can attempt a Perception check to discern the message (DC 20 if an ally, DC15 if a halfling ally, DC 10 if a halfling ally with Folksy Patter).</p>\n<p>Eavesdroppers can also attempt a Perception check against your Deception DC to discern your meaning. Any bonuses or penalties to Perception checks to @Compendium[pf2e.actionspf2e.Sense Motive]{Sense Motive} apply.</p>"
        },
        "featType": {
            "value": "ancestry"
        },
        "level": {
            "value": "1"
        },
        "prerequisites": {
            "value": [
                ""
            ]
        },
        "rules": [],
        "source": {
            "value": ""
        },
        "traits": {
            "custom": "",
            "rarity": {
                "value": "common"
            },
            "value": [
                "halfling"
            ]
        }
    },
    "effects": [],
    "flags": {},
    "img": "systems/pf2e/icons/features/feats/feats.jpg",
    "name": "Folksy Patter",
    "permission": {
        "default": 0
    },
    "type": "feat"
}
