{
    "_id": "iT39wlCEC1aWaSx7",
    "data": {
        "actionCategory": {
            "value": ""
        },
        "actionType": {
            "value": "passive"
        },
        "actions": {
            "value": ""
        },
        "description": {
            "chat": "",
            "unidentified": "",
            "value": "<p>Your expertise with your weapons and commitment to taking out your targets lends you magical power.</p>\n<p>You gain the @Compendium[pf2e.spells-srd.Gravity Weapon]{Gravity Weapon} warden spell and a focus pool of 1 Focus Point.</p>"
        },
        "featType": {
            "value": "class"
        },
        "level": {
            "value": "1"
        },
        "prerequisites": {
            "value": [
                ""
            ]
        },
        "rules": [],
        "source": {
            "value": ""
        },
        "traits": {
            "custom": "",
            "rarity": {
                "value": "common"
            },
            "value": [
                "ranger"
            ]
        }
    },
    "effects": [],
    "flags": {},
    "img": "systems/pf2e/icons/features/feats/feats.jpg",
    "name": "Gravity Weapon",
    "permission": {
        "default": 0
    },
    "type": "feat"
}
