{
    "_id": "iuLLw1X5RjRcR4rH",
    "data": {
        "actionCategory": {
            "value": ""
        },
        "actionType": {
            "value": "passive"
        },
        "actions": {
            "value": ""
        },
        "description": {
            "chat": "",
            "unidentified": "",
            "value": "<p>Your command over halcyon magic is nearly unmatched. You gain two common 6th-level and 7th-level halcyon spells. You also gain a 6th-level halcyon spell slot and a 7th-level halcyon spell slot. Your proficiency rank in either arcane or primal spell DCs and spell attack rolls advances from expert to master.</p>"
        },
        "featType": {
            "value": "archetype"
        },
        "level": {
            "value": 18
        },
        "prerequisites": [
            "Halcyon Spellcasting Adept",
            "legendary in either Arcana or Nature and master in the other"
        ],
        "rules": [],
        "source": {
            "value": ""
        },
        "traits": {
            "custom": "",
            "rarity": {
                "value": "common"
            },
            "value": [
                "archetype"
            ]
        }
    },
    "effects": [],
    "flags": {},
    "img": "systems/pf2e/icons/features/feats/feats.jpg",
    "name": "Halcyon Spellcasting Sage",
    "permission": {
        "default": 0
    },
    "type": "feat"
}
