{
    "_id": "9Eufa07qvXG41QmG",
    "data": {
        "actionCategory": {
            "value": ""
        },
        "actionType": {
            "value": "passive"
        },
        "actions": {
            "value": ""
        },
        "description": {
            "chat": "",
            "unidentified": "",
            "value": "<p>You deliver poisons in ways that maximize their harmful effects. When you apply a simple poison with Poison Weapon, the poison deals <a class=\"inline-roll roll\" data-mode=\"roll\" data-flavor=\"poison\" data-formula=\"2d4\" title=\"poison\"><i class=\"fas fa-dice-d20\"></i> 2d4</a> poison damage instead of <a class=\"inline-roll roll\" data-mode=\"roll\" data-flavor=\"poison\" data-formula=\"1d4\" title=\"poison\"><i class=\"fas fa-dice-d20\"></i> 1d4</a> poison damage. You don't waste a poison you apply with Poison Weapon on a critically failed attack roll.</p>"
        },
        "featType": {
            "value": "class"
        },
        "level": {
            "value": 8
        },
        "prerequisites": [
            "Poison Weapon"
        ],
        "rules": [],
        "source": {
            "value": ""
        },
        "traits": {
            "custom": "",
            "rarity": {
                "value": "common"
            },
            "value": [
                "rogue"
            ]
        }
    },
    "effects": [],
    "flags": {},
    "img": "systems/pf2e/icons/features/feats/feats.jpg",
    "name": "Improved Poison Weapon",
    "permission": {
        "default": 0
    },
    "type": "feat"
}
