{
    "_id": "xT593tHyPkumPuzz",
    "data": {
        "actionCategory": {
            "value": ""
        },
        "actionType": {
            "value": "action"
        },
        "actions": {
            "value": "3"
        },
        "description": {
            "chat": "",
            "unidentified": "",
            "value": "<p>You are skilled at making quick fixes to damaged equipment, but your fixes aren't meant to last forever.</p>\n<p>You make a quick @Compendium[pf2e.actionspf2e.Repair]{Repair} to a broken non-magical item in your possession. Until the item takes damage again, you can still use it as a shoddy item of its type. This repair restores no Hit Points, so the item is easy to destroy. Once the item is Repaired normally such that it is no longer broken, it is also no longer shoddy.</p>"
        },
        "featType": {
            "value": "general"
        },
        "level": {
            "value": "3"
        },
        "prerequisites": {
            "value": [
                ""
            ]
        },
        "rules": [],
        "source": {
            "value": ""
        },
        "traits": {
            "custom": "",
            "rarity": {
                "value": "common"
            },
            "value": [
                "general"
            ]
        }
    },
    "effects": [],
    "flags": {},
    "img": "systems/pf2e/icons/features/feats/feats.jpg",
    "name": "Improvised Repair",
    "permission": {
        "default": 0
    },
    "type": "feat"
}
