{
    "_id": "XKDFgBEtFdEzCz8X",
    "data": {
        "actionCategory": {
            "value": ""
        },
        "actionType": {
            "value": "passive"
        },
        "actions": {
            "value": ""
        },
        "description": {
            "chat": "",
            "unidentified": "",
            "value": "<p>Your affinity with process and order makes you a natural artisan. You gain the trained proficiency rank in Crafting (or another skill of your choice, if you’re already trained in Crafting). You gain the Specialty Crafting skill feat in a specialty of your choice.</p>\n<hr />\n<ul>\n<li>@Compendium[pf2e.feats-srd.Specialty Crafting (Alchemy)]{Specialty Crafting (Alchemy)}</li>\n<li>@Compendium[pf2e.feats-srd.Specialty Crafting (Artistry)]{Specialty Crafting (Artistry)}</li>\n<li>@Compendium[pf2e.feats-srd.Specialty Crafting (Blacksmithing)]{Specialty Crafting (Blacksmithing)}</li>\n<li>@Compendium[pf2e.feats-srd.Specialty Crafting (Bookmaking)]{Specialty Crafting (Bookmaking)}</li>\n<li>@Compendium[pf2e.feats-srd.Specialty Crafting (Glassmaking)]{Specialty Crafting (Glassmaking)}</li>\n<li>@Compendium[pf2e.feats-srd.Specialty Crafting (Leatherworking)]{Specialty Crafting (Leatherworking)}</li>\n<li>@Compendium[pf2e.feats-srd.Specialty Crafting (Pottery)]{Specialty Crafting (Pottery)}</li>\n<li>@Compendium[pf2e.feats-srd.Specialty Crafting (Shipbuilding)]{Specialty Crafting (Shipbuilding)}</li>\n<li>@Compendium[pf2e.feats-srd.Specialty Crafting (Stonemasonry)]{Specialty Crafting (Stonemasonry)}</li>\n<li>@Compendium[pf2e.feats-srd.Specialty Crafting (Tailoring)]{Specialty Crafting (Tailoring)}</li>\n<li>@Compendium[pf2e.feats-srd.Specialty Crafting (Weaving)]{Specialty Crafting (Weaving)}</li>\n<li>@Compendium[pf2e.feats-srd.Specialty Crafting (Woodworking)]{Specialty Crafting (Woodworking)}</li>\n</ul>"
        },
        "featType": {
            "value": "general"
        },
        "level": {
            "value": 1
        },
        "location": "",
        "prerequisites": {
            "value": ""
        },
        "rules": [],
        "source": {
            "value": ""
        },
        "traits": {
            "custom": "",
            "rarity": {
                "value": "common"
            },
            "value": [
                "aphorite"
            ]
        },
        "usage": {
            "value": ""
        }
    },
    "effects": [],
    "flags": {},
    "img": "systems/pf2e/icons/features/feats/feats.jpg",
    "name": "Intuitive Crafting",
    "permission": {
        "default": 0
    },
    "type": "feat"
}
