{
    "_id": "jrDCPvkruz8y740Z",
    "data": {
        "actionCategory": {
            "value": ""
        },
        "actionType": {
            "value": "passive"
        },
        "actions": {
            "value": ""
        },
        "description": {
            "value": "<p>Your pursuit is relentless, and you are able to magically locate stolen objects and outlaws. You gain @Compendium[pf2e.spells-srd.Locate]{Locate} as an innate spell of a tradition of your choice, which you can cast once per day. If you are a member of the Order of the Gate, when you reach 14th level, the spell is heightened to 5th level.</p>"
        },
        "featType": {
            "value": "bonus"
        },
        "level": {
            "value": 0
        },
        "location": "",
        "prerequisites": [
            "Order of the Gate"
        ],
        "rules": [],
        "source": {
            "value": ""
        },
        "traits": {
            "custom": "",
            "rarity": {
                "value": "common"
            },
            "value": []
        }
    },
    "effects": [],
    "flags": {},
    "img": "systems/pf2e/icons/default-icons/feat.svg",
    "name": "Locate Lawbreakers",
    "permission": {
        "default": 0
    },
    "type": "feat"
}
