{
    "_id": "DPaZurhC9uyIWPcu",
    "data": {
        "actionCategory": {
            "value": ""
        },
        "actionType": {
            "value": "passive"
        },
        "actions": {
            "value": ""
        },
        "description": {
            "chat": "",
            "unidentified": "",
            "value": "<p>When an obstacle bars your path, you pull a trick from your sleeve to overcome it. You can cast @Compendium[pf2e.spells-srd.Darkvision]{Darkvision}, @Compendium[pf2e.spells-srd.Spider Climb]{Spider Climb}, and 4th-level @Compendium[pf2e.spells-srd.Water Breathing]{Water Breathing} as innate primal spells, each once per day.</p>"
        },
        "featType": {
            "value": "archetype"
        },
        "level": {
            "value": "10"
        },
        "prerequisites": {
            "value": [
                "Horizon Walker Dedication"
            ]
        },
        "rules": [],
        "source": {
            "value": ""
        },
        "traits": {
            "custom": "",
            "rarity": {
                "value": "common"
            },
            "value": [
                "archetype"
            ]
        }
    },
    "effects": [],
    "flags": {},
    "img": "systems/pf2e/icons/features/feats/feats.jpg",
    "name": "Magical Adaptation",
    "permission": {
        "default": 0
    },
    "type": "feat"
}
