{
    "_id": "qXl2cOh3wL3QszCy",
    "data": {
        "actionCategory": {
            "value": ""
        },
        "actionType": {
            "value": "passive"
        },
        "actions": {
            "value": ""
        },
        "description": {
            "chat": "",
            "unidentified": "",
            "value": "<p>You've crossed blades with a wide variety of foes wielding a wide variety of weapons, and you've learned the basics of fighting with nearly any of them.</p>\n<p>When wielding a weapon you aren't proficient with, treat your level as your proficiency bonus. At 11th level, you become trained in all weapons.</p>"
        },
        "featType": {
            "value": "ancestry"
        },
        "level": {
            "value": "5"
        },
        "prerequisites": {
            "value": [
                ""
            ]
        },
        "rules": [],
        "source": {
            "value": ""
        },
        "traits": {
            "custom": "",
            "rarity": {
                "value": "common"
            },
            "value": [
                "elf"
            ]
        }
    },
    "effects": [],
    "flags": {},
    "img": "systems/pf2e/icons/features/feats/feats.jpg",
    "name": "Martial Experience",
    "permission": {
        "default": 0
    },
    "type": "feat"
}
