{
    "_id": "tpkJXDpSuGznfzGJ",
    "data": {
        "actionCategory": {
            "value": ""
        },
        "actionType": {
            "value": "passive"
        },
        "actions": {
            "value": ""
        },
        "description": {
            "chat": "",
            "unidentified": "",
            "value": "<p>Your animal companion grows up, becoming a mature animal companion and gaining additional capabilities (page 214). If you have the Hunt Prey action, your animal companion assaults the prey even without your orders. During an encounter, even if you don't use the Command an Animal action, your animal companion can still use 1 action that round on your turn to Stride toward or Strike your prey.</p>"
        },
        "featType": {
            "value": "class"
        },
        "level": {
            "value": 6
        },
        "prerequisites": [
            "Animal Companion"
        ],
        "rules": [],
        "source": {
            "value": ""
        },
        "traits": {
            "custom": "",
            "rarity": {
                "value": "common"
            },
            "value": [
                "ranger"
            ]
        }
    },
    "effects": [],
    "flags": {},
    "img": "systems/pf2e/icons/features/feats/feats.jpg",
    "name": "Mature Animal Companion (Ranger)",
    "permission": {
        "default": 0
    },
    "type": "feat"
}
