{
    "_id": "fD3RSV9nIkJsW6lD",
    "data": {
        "actionCategory": {
            "value": ""
        },
        "actionType": {
            "value": "action"
        },
        "actions": {
            "value": "1"
        },
        "description": {
            "chat": "",
            "unidentified": "",
            "value": "<p>Assuming a peculiar stance, you make a short hop on each toe. You make a vertical @Compendium[pf2e.actionspf2e.Leap]{Leap} without triggering reactions that can be triggered by move actions or upon leaving or entering a square.</p>"
        },
        "featType": {
            "value": "ancestry"
        },
        "level": {
            "value": "5"
        },
        "prerequisites": {
            "value": [
                ""
            ]
        },
        "rules": [],
        "source": {
            "value": ""
        },
        "traits": {
            "custom": "",
            "rarity": {
                "value": "common"
            },
            "value": [
                "tengu"
            ]
        }
    },
    "effects": [],
    "flags": {},
    "img": "systems/pf2e/icons/features/feats/feats.jpg",
    "name": "One-Toed Hop",
    "permission": {
        "default": 0
    },
    "type": "feat"
}
