{
    "_id": "8ukixWL8MBJOhPbW",
    "data": {
        "actionCategory": {
            "value": ""
        },
        "actionType": {
            "value": "passive"
        },
        "actions": {
            "value": ""
        },
        "description": {
            "chat": "",
            "unidentified": "",
            "value": "<p>One of your parents has a human life span and another an elven life span, with your own somewhere between. As a result, you have an unusual perspective on time, which you've learned to manifest to aid yourself in moments of stress.</p>\n<p>You gain @Compendium[pf2e.spells-srd.Haste]{Haste} as a 3rd-level arcane innate spell, though you can target only yourself. You can Cast this Spell once per day.</p>"
        },
        "featType": {
            "value": "ancestry"
        },
        "level": {
            "value": 9
        },
        "location": "",
        "prerequisites": [],
        "rules": [],
        "source": {
            "value": ""
        },
        "traits": {
            "custom": "",
            "rarity": {
                "value": "common"
            },
            "value": [
                "half-elf"
            ]
        }
    },
    "effects": [],
    "flags": {},
    "img": "systems/pf2e/icons/features/feats/feats.jpg",
    "name": "Pinch Time",
    "permission": {
        "default": 0
    },
    "type": "feat"
}
