{
    "_id": "Yj4mpROEjdCjQzMd",
    "data": {
        "actionCategory": {
            "value": ""
        },
        "actionType": {
            "value": "passive"
        },
        "actions": {
            "value": ""
        },
        "description": {
            "chat": "",
            "unidentified": "",
            "value": "<p>You can Subsist using Survival on different planes, even those without resources or natural phenomena you normally need. For instance, you can forage for food even if the plane lacks food that could normally sustain you. A success on your check to Subsist can also reduce the damage dealt by the plane, at the GM's discretion.</p>"
        },
        "featType": {
            "value": "skill"
        },
        "level": {
            "value": 7
        },
        "prerequisites": [
            "master in Survival"
        ],
        "rules": [],
        "source": {
            "value": ""
        },
        "traits": {
            "custom": "",
            "rarity": {
                "value": "common"
            },
            "value": [
                "general",
                "skill"
            ]
        }
    },
    "effects": [],
    "flags": {},
    "img": "systems/pf2e/icons/features/feats/feats.jpg",
    "name": "Planar Survival",
    "permission": {
        "default": 0
    },
    "type": "feat"
}
