{
    "_id": "nWxNV9pFeBHV671W",
    "data": {
        "actionCategory": {
            "value": ""
        },
        "actionType": {
            "value": "passive"
        },
        "actions": {
            "value": ""
        },
        "description": {
            "chat": "",
            "unidentified": "",
            "value": "<p>Your verdant weapon can cut through the resistances of magical creatures. The weapon is treated as cold iron and silver. If you critically hit a creature that has a weakness to cold iron or silver, the target takes [[/r 1d6 #persistent bleed]] persistent bleed damage as the primal energies within your weapon slow its natural healing.</p>"
        },
        "featType": {
            "value": "class"
        },
        "level": {
            "value": "10"
        },
        "prerequisites": {
            "value": [
                "Verdant Weapon"
            ]
        },
        "rules": [],
        "source": {
            "value": ""
        },
        "traits": {
            "custom": "",
            "rarity": {
                "value": "common"
            },
            "value": [
                "druid"
            ]
        }
    },
    "effects": [],
    "flags": {},
    "img": "systems/pf2e/icons/features/feats/feats.jpg",
    "name": "Pristine Weapon",
    "permission": {
        "default": 0
    },
    "type": "feat"
}
