{
    "_id": "7RFu7EwwvjHMP0dq",
    "data": {
        "actionCategory": {
            "value": ""
        },
        "actionType": {
            "value": "passive"
        },
        "actions": {
            "value": ""
        },
        "description": {
            "chat": "",
            "unidentified": "",
            "value": "<p>You remember the secrets of your rakshasa forebears and know how to apply those memories to get results. You can cast @Compendium[pf2e.spells-srd.Humanoid Form]{Humanoid Form} and @Compendium[pf2e.spells-srd.Illusory Creature]{Illusory Creature} once per day each as 2nd-level divine innate spells.</p>"
        },
        "featType": {
            "value": "ancestry"
        },
        "level": {
            "value": 9
        },
        "location": "",
        "prerequisites": [
            "Beastbrood"
        ],
        "rules": [],
        "source": {
            "value": ""
        },
        "traits": {
            "custom": "",
            "rarity": {
                "value": "common"
            },
            "value": [
                "tiefling"
            ]
        },
        "usage": {
            "value": ""
        }
    },
    "effects": [],
    "flags": {},
    "img": "systems/pf2e/icons/features/feats/feats.jpg",
    "name": "Rakshasa Magic",
    "permission": {
        "default": 0
    },
    "type": "feat"
}
