{
    "_id": "8MMYFIudSDkdo8cx",
    "data": {
        "actionCategory": {
            "value": ""
        },
        "actionType": {
            "value": "passive"
        },
        "actions": {
            "value": ""
        },
        "description": {
            "chat": "",
            "unidentified": "",
            "value": "<p>There always seems to be a little rat around to carry messages for you. You can cast @Compendium[pf2e.spells-srd.Animal Messenger]{Animal Messenger} once per day as a primal innate spell. When you do, the animal that responds is always a rat. If there are no rats within range, the spell is lost.</p>"
        },
        "featType": {
            "value": "ancestry"
        },
        "level": {
            "value": "5"
        },
        "prerequisites": {
            "value": [
                ""
            ]
        },
        "rules": [],
        "source": {
            "value": ""
        },
        "traits": {
            "custom": "",
            "rarity": {
                "value": "common"
            },
            "value": [
                "ratfolk"
            ]
        }
    },
    "effects": [],
    "flags": {},
    "img": "systems/pf2e/icons/features/feats/feats.jpg",
    "name": "Rat Magic",
    "permission": {
        "default": 0
    },
    "type": "feat"
}
