{
    "_id": "4Q9Q41KLPYJMdV4b",
    "data": {
        "actionCategory": {
            "value": ""
        },
        "actionType": {
            "value": "reaction"
        },
        "actions": {
            "value": ""
        },
        "description": {
            "chat": "",
            "unidentified": "",
            "value": "<p><strong>Trigger</strong> varies</p>\n<hr />\n<p>You transform reflexively when in danger. You cast @Compendium[pf2e.spells-srd.Wild Shape]{Wild Shape} to transform into one form granted by one of the prerequisite feats you have, depending on the trigger. Your form's resistances and weaknesses apply against the triggering damage.</p>\n<hr />\n<p><strong>Trigger</strong> You fall 10 feet or more</p>\n<p><strong>Effect</strong> Choose a form from @Compendium[pf2e.spells-srd.Aerial Form]{Aerial Form}.</p>\n<hr />\n<p><strong>Trigger</strong> You take acid, cold, electricity, fire, or poison damage</p>\n<p><strong>Effect</strong> Choose a form from @Compendium[pf2e.spells-srd.Dragon Form]{Dragon Form} that resists the triggering damage.</p>\n<hr />\n<p><strong>Trigger</strong> You take fire damage</p>\n<p><strong>Effect</strong> Choose a fire elemental form from @Compendium[pf2e.spells-srd.Elemental Form]{Elemental Form}.</p>\n<hr />\n<p><strong>Trigger</strong> You take poison damage</p>\n<p><strong>Effect</strong> Choose a form from @Compendium[pf2e.spells-srd.Plant Form]{Plant Form}.</p>"
        },
        "featType": {
            "value": "class"
        },
        "level": {
            "value": 14
        },
        "prerequisites": [
            "Wild Shape, Dragon Shape, Elemental Shape, Plant Shape, or Soaring Shape"
        ],
        "rules": [],
        "source": {
            "value": ""
        },
        "traits": {
            "custom": "",
            "rarity": {
                "value": "common"
            },
            "value": [
                "druid"
            ]
        }
    },
    "effects": [],
    "flags": {},
    "img": "systems/pf2e/icons/features/feats/feats.jpg",
    "name": "Reactive Transformation",
    "permission": {
        "default": 0
    },
    "type": "feat"
}
