{
    "_id": "qUZnrueC2a0zf95N",
    "data": {
        "actionCategory": {
            "value": ""
        },
        "actionType": {
            "value": "passive"
        },
        "actions": {
            "value": ""
        },
        "description": {
            "chat": "",
            "unidentified": "",
            "value": "<p>Unlike most of your kind, who dismiss goblins as embarrassments or expendable annoyances, you have studied the methodology behind their irresponsible and incomprehensible actions. You gain the @Compendium[pf2e.feats-srd.Adopted Ancestry]{Adopted Ancestry} general feat and must select goblin as the feat’s chosen ancestry. You also gain one 1st-level goblin ancestry feat.</p>"
        },
        "featType": {
            "value": "ancestry"
        },
        "level": {
            "value": 5
        },
        "location": "",
        "prerequisites": [],
        "rules": [],
        "source": {
            "value": ""
        },
        "traits": {
            "custom": "",
            "rarity": {
                "value": "common"
            },
            "value": [
                "hobgoblin"
            ]
        },
        "usage": {
            "value": ""
        }
    },
    "effects": [],
    "flags": {},
    "img": "systems/pf2e/icons/features/feats/feats.jpg",
    "name": "Runtsage",
    "permission": {
        "default": 0
    },
    "type": "feat"
}
