{
    "_id": "Ux0DSklFlIlcvnhO",
    "data": {
        "actionCategory": {
            "value": ""
        },
        "actionType": {
            "value": "passive"
        },
        "actions": {
            "value": ""
        },
        "description": {
            "chat": "",
            "unidentified": "",
            "value": "<p>The power of your faith suffuses your ki. When you select this feat, choose chaos, evil, good, or law. Your choice must match one of your deity's alignment components.<br /><br />When you cast the @Compendium[pf2e.spells-srd.Ki Strike]{Ki Strike} focus spell and damage a creature whose alignment is opposite your chosen alignment, you can choose for the <em>ki strike</em> damage to be of the chosen type. Additionally, you can substitute the damage from @Compendium[pf2e.spells-srd.Ki Blast]{Ki Blast} (or other ki spells that deal force damage, at the GM's discretion) with damage of your chosen alignment.</p>"
        },
        "featType": {
            "value": "class"
        },
        "level": {
            "value": 4
        },
        "prerequisites": [
            "Ki Strike",
            "you follow a deity"
        ],
        "rules": [],
        "source": {
            "value": ""
        },
        "traits": {
            "custom": "",
            "rarity": {
                "value": "common"
            },
            "value": [
                "monk"
            ]
        }
    },
    "effects": [],
    "flags": {},
    "img": "systems/pf2e/icons/features/feats/feats.jpg",
    "name": "Sacred Ki",
    "permission": {
        "default": 0
    },
    "type": "feat"
}
