{
    "_id": "ulQzdBOnZH9LQu8M",
    "data": {
        "actionCategory": {
            "value": ""
        },
        "actionType": {
            "value": "passive"
        },
        "actions": {
            "value": ""
        },
        "description": {
            "chat": "",
            "unidentified": "",
            "value": "<p>Your bodily fluids burn with surprising volatility, as if you ran on oil instead of blood. As long as you are taking persistent fire damage, you gain a boiling spit ranged unarmed attack with a range of 30 feet that deals 1d6 fire damage.</p>"
        },
        "featType": {
            "value": "ancestry"
        },
        "level": {
            "value": "9"
        },
        "prerequisites": {
            "value": [
                "Torch Goblin"
            ]
        },
        "rules": [],
        "source": {
            "value": ""
        },
        "traits": {
            "custom": "",
            "rarity": {
                "value": "common"
            },
            "value": [
                "goblin"
            ]
        }
    },
    "effects": [],
    "flags": {},
    "img": "systems/pf2e/icons/features/feats/feats.jpg",
    "name": "Scalding Spit",
    "permission": {
        "default": 0
    },
    "type": "feat"
}
