{
    "_id": "n3vpCWPjXAInRTyR",
    "data": {
        "actionCategory": {
            "value": ""
        },
        "actionType": {
            "value": "action"
        },
        "actions": {
            "value": "2"
        },
        "description": {
            "chat": "",
            "unidentified": "",
            "value": "<p>Pathfinders are trained to help each other be safe and successful, and you know how to jolt your allies back to their senses. Attempt a Medicine check on an adjacent ally who is fascinated, frightened, stunned, or stupefied and choose one of those conditions. The DC is the DC for the effect that caused the condition.</p>\n<hr />\n<p><strong>Critical Success</strong> Reduce the value of the chosen condition by 2. If you chose fascinated, that condition ends.</p>\n<p><strong>Success</strong> Reduce the value of the chosen condition by 1. If you chose fascinated, that condition ends.</p>\n<p><strong>Failure</strong> The target is unaffected.</p>\n<p><strong>Critical Failure</strong> You increase the value of the chosen condition by 1. If you chose fascinated, increase the duration by 1 round instead.</p>"
        },
        "featType": {
            "value": "archetype"
        },
        "level": {
            "value": 8
        },
        "prerequisites": [
            "Pathfinder Agent Dedication",
            "master in Medicine"
        ],
        "rules": [],
        "source": {
            "value": ""
        },
        "traits": {
            "custom": "",
            "rarity": {
                "value": "common"
            },
            "value": [
                "archetype",
                "skill"
            ]
        }
    },
    "effects": [],
    "flags": {},
    "img": "systems/pf2e/icons/features/feats/feats.jpg",
    "name": "Snap Out Of It! (Pathfinder Agent)",
    "permission": {
        "default": 0
    },
    "type": "feat"
}
