{
    "_id": "IxggfXunfldeVOsQ",
    "data": {
        "actionCategory": {
            "value": ""
        },
        "actionType": {
            "value": "free"
        },
        "actions": {
            "value": ""
        },
        "description": {
            "chat": "",
            "unidentified": "",
            "value": "<p><strong>Trigger</strong> Your turn ends and you have a status penalty to your Speed or are immobilized or slowed</p>\n<hr />\n<p>You flow like water, avoiding all restraints. End one status penalty to your speed, or end one immobilized or slowed condition affecting you.</p>"
        },
        "featType": {
            "value": "class"
        },
        "level": {
            "value": 18
        },
        "prerequisites": [],
        "rules": [],
        "source": {
            "value": ""
        },
        "traits": {
            "custom": "",
            "rarity": {
                "value": "common"
            },
            "value": [
                "monk"
            ]
        }
    },
    "effects": [],
    "flags": {},
    "img": "systems/pf2e/icons/features/feats/feats.jpg",
    "name": "Swift River",
    "permission": {
        "default": 0
    },
    "type": "feat"
}
