{
    "_id": "U5FcfRvveTKtgebq",
    "data": {
        "actionCategory": {
            "value": ""
        },
        "actionType": {
            "value": "action"
        },
        "actions": {
            "value": "1"
        },
        "description": {
            "chat": "",
            "unidentified": "",
            "value": "<p>You've spent enough time on fire that you know how to use it to your advantage. You can light yourself thoroughly on fire with a held torch, a bottle of alchemist's fire, or a similar incendiary, dealing yourself 1d6 persistent fire damage. As long as you are suffering persistent fire damage, all your melee attacks against adjacent creatures deal an additional 1 fire damage per weapon damage die. Any creature that successfully @Compendium[pf2e.actionspf2e.Grapple]{Grapples}, @Compendium[pf2e.actionspf2e.Shove]{Shoves}, or @Compendium[pf2e.actionspf2e.Trip]{Trips} you takes 1d6 fire damage; if it uses a weapon for that action, the weapon takes the damage instead. You must still attempt the flat check to remove the persistent fire damage each round, as normal.</p>"
        },
        "featType": {
            "value": "ancestry"
        },
        "level": {
            "value": "5"
        },
        "prerequisites": {
            "value": [
                "charhide goblin heritage"
            ]
        },
        "rules": [],
        "source": {
            "value": ""
        },
        "traits": {
            "custom": "",
            "rarity": {
                "value": "common"
            },
            "value": [
                "goblin"
            ]
        }
    },
    "effects": [],
    "flags": {},
    "img": "systems/pf2e/icons/features/feats/feats.jpg",
    "name": "Torch Goblin",
    "permission": {
        "default": 0
    },
    "type": "feat"
}
