{
    "_id": "39RJF47FLYr5gZ8p",
    "data": {
        "actionCategory": {
            "value": ""
        },
        "actionType": {
            "value": "action"
        },
        "actions": {
            "value": "1"
        },
        "description": {
            "chat": "",
            "unidentified": "",
            "value": "<p><strong>Requirements</strong>: You are riding your mount and wielding a <br />jousting weapon.</p>\n<hr />\n<p>You attempt to knock an opponent off their mount. Make a melee @Compendium[pf2e.actionspf2e.Strike]{Strike} against a mounted opponent. If your attack hits, attempt an Athletics check against the opponent's Fortitude DC. If you succeed, the foe is knocked off its mount into a space of its choice adjacent to its mount. If you critically succeed, it lands @Compendium[pf2e.conditionitems.Prone]{Prone}.</p>"
        },
        "featType": {
            "value": "archetype"
        },
        "level": {
            "value": "10"
        },
        "prerequisites": {
            "value": [
                "Cavalier Dedication"
            ]
        },
        "rules": [],
        "source": {
            "value": ""
        },
        "traits": {
            "custom": "",
            "rarity": {
                "value": "common"
            },
            "value": [
                "archetype"
            ]
        }
    },
    "effects": [],
    "flags": {},
    "img": "systems/pf2e/icons/features/feats/feats.jpg",
    "name": "Unseat",
    "permission": {
        "default": 0
    },
    "type": "feat"
}
