{
    "_id": "DfXlr5qqbcjJN3gh",
    "data": {
        "actionCategory": {
            "value": ""
        },
        "actionType": {
            "value": "passive"
        },
        "actions": {
            "value": ""
        },
        "description": {
            "chat": "",
            "unidentified": "",
            "value": "<p><strong>Moderate Boon</strong>: Abadar blesses all your enterprises, leading to financial success as all your ventures always seems to work out.</p>\n<p>If you roll a critical failure at a check to @Compendium[pf2e.actionspf2e.Earn Income]{Earn Income}, you get a failure instead.</p>\n<p>If you roll a success on a check to @Compendium[pf2e.actionspf2e.Earn Income]{Earn Income}, you earn twice the usual amount of income.</p>"
        },
        "featType": {
            "value": "deityboon"
        },
        "level": {
            "value": "0"
        },
        "prerequisites": {
            "value": ""
        },
        "rules": [],
        "source": {
            "value": ""
        },
        "traits": {
            "custom": "",
            "rarity": {
                "value": "common"
            },
            "selected": {},
            "value": []
        }
    },
    "effects": [],
    "flags": {},
    "img": "systems/pf2e/icons/deity/Abadar.png",
    "name": "Abadar - Moderate Boon",
    "permission": {
        "default": 0
    },
    "type": "feat"
}
