{
    "_id": "ILtU0TAUZcOcwkkG",
    "data": {
        "actionCategory": {
            "value": ""
        },
        "actionType": {
            "value": "passive"
        },
        "actions": {
            "value": ""
        },
        "description": {
            "chat": "",
            "unidentified": "",
            "value": "<p><strong>Major Curse</strong>: Those who spread misery via false love face Shelyn's greatest curse.</p>\n<p>You lose the ability to distinguish any living being from another through appearance, voice, scent, or similar sensory means. You can make out physical size (so you wouldn't mistake an ant for a horse), but nothing further.</p>\n<p>If you were merely shallow, every creature you see has generic, bland features, but if your deeds were vile, you see only the faces of those you have wronged.</p>"
        },
        "featType": {
            "value": "curse"
        },
        "level": {
            "value": "0"
        },
        "prerequisites": {
            "value": ""
        },
        "rules": [],
        "source": {
            "value": ""
        },
        "traits": {
            "custom": "",
            "rarity": {
                "value": "common"
            },
            "selected": {},
            "value": []
        }
    },
    "effects": [],
    "flags": {},
    "img": "systems/pf2e/icons/deity/Shelyn.png",
    "name": "Shelyn - Major Curse",
    "permission": {
        "default": 0
    },
    "type": "feat"
}
