{
    "_id": "sE2txm68yZSFMV3v",
    "data": {
        "description": {
            "value": "<p>Granted by @Compendium[pf2e.spells-srd.Sweet Dream]{Sweet Dream}.</p>\n<p>You gain +5 foot status bonus to your Speed.</p>"
        },
        "duration": {
            "expiry": "turn-start",
            "sustained": false,
            "unit": "minutes",
            "value": 10
        },
        "level": {
            "value": 1
        },
        "rules": [
            {
                "key": "PF2E.RuleElement.TokenEffectIcon"
            },
            {
                "key": "PF2E.RuleElement.FlatModifier",
                "selector": "land-speed",
                "type": "status",
                "value": 5
            }
        ],
        "source": {
            "value": ""
        },
        "start": {
            "initiative": null,
            "value": 0
        },
        "target": null,
        "traits": {
            "custom": "",
            "rarity": {
                "value": "common"
            },
            "value": []
        }
    },
    "effects": [],
    "flags": {},
    "img": "systems/pf2e/icons/spells/sweet-dream.jpg",
    "name": "Spell Effect: Sweet Dream (Voyaging)",
    "permission": {
        "default": 0
    },
    "type": "effect"
}
