{
    "_id": "3LLHyUz0Nabuw46L",
    "data": {
        "attributes": {
            "ac": {
                "value": 15
            },
            "hardness": 0,
            "hasHealth": true,
            "hp": {
                "details": "",
                "max": 30,
                "temp": 0,
                "tempmax": 0,
                "value": 30
            },
            "stealth": {
                "details": "(trained) to spot the pressure plates",
                "value": 8
            }
        },
        "creatureType": "",
        "details": {
            "description": "Four pressure plates beneath the floorboards activate dragon-headed fountains on either side of the room, which spray boiling water across the area between them.",
            "disable": "DC 21 Thievery (trained) to disable each pressure plate, DC 16 to jam each fountain, or DC 18 to deflect a fountain's spray",
            "isComplex": false,
            "level": 2,
            "reset": "Once a pressure plate has been activated, it must be reset manually.",
            "routine": ""
        },
        "flavourText": "",
        "nethysUrl": "",
        "recallKnowledgeText": "",
        "saves": {
            "fortitude": {
                "rank": 0,
                "saveDetail": "",
                "value": 8
            },
            "reflex": {
                "rank": 0,
                "saveDetail": "",
                "value": 5
            },
            "will": {
                "rank": 0,
                "saveDetail": "",
                "value": 0
            }
        },
        "schema": {
            "version": {
                "value": ""
            }
        },
        "sidebarText": "",
        "source": {
            "value": ""
        },
        "statusEffects": [],
        "traits": {
            "ci": [],
            "di": {
                "custom": "",
                "selected": {},
                "value": [
                    "critical-hits",
                    "object-immunities",
                    "precision"
                ]
            },
            "dr": [],
            "dv": [],
            "rarity": {
                "value": "common"
            },
            "size": {
                "value": "med"
            },
            "traits": {
                "custom": "",
                "value": [
                    "mechanical"
                ]
            }
        }
    },
    "effects": [],
    "flags": {},
    "img": "systems/pf2e/icons/default-icons/hazard.svg",
    "items": [
        {
            "_id": "IVbYmIS1u62AEFZm",
            "data": {
                "actionCategory": {
                    "value": ""
                },
                "actionType": {
                    "value": "reaction"
                },
                "actions": {
                    "value": ""
                },
                "description": {
                    "chat": "",
                    "unidentified": "",
                    "value": "<p><strong>Trigger</strong> Weight is placed on one of the squares marked with \"T\" on the map, triggering a pressure plate; <strong>Effect</strong> The fountains spray boiling water across their own squares and the 10-foot-by-20-foot area between them (marked with dotted lines), dealing [[4d6+4]] fire damage to any creatures in the area (DC 22 basic Reflex save).</p>"
                },
                "requirements": {
                    "value": ""
                },
                "rules": [],
                "slug": null,
                "source": {
                    "value": ""
                },
                "traits": {
                    "custom": "",
                    "rarity": {
                        "value": "common"
                    },
                    "selected": {
                        "fire": "Fire",
                        "water": "Water"
                    },
                    "value": [
                        "fire",
                        "water"
                    ]
                },
                "trigger": {
                    "value": ""
                },
                "usage": {
                    "value": "held-in-one-hand"
                },
                "weapon": {
                    "value": ""
                }
            },
            "effects": [],
            "flags": {},
            "img": "systems/pf2e/icons/actions/Reaction.png",
            "name": "Scalding Spray",
            "sort": 100000,
            "type": "action"
        }
    ],
    "name": "Boiling Fountains",
    "permission": {
        "default": 0
    },
    "token": {
        "actorId": "3LLHyUz0Nabuw46L",
        "actorLink": false,
        "bar1": {
            "attribute": "attributes.hp"
        },
        "bar2": {},
        "brightLight": 0,
        "brightSight": 0,
        "dimLight": 0,
        "dimSight": 0,
        "displayBars": 20,
        "displayName": 20,
        "disposition": 0,
        "flags": {},
        "height": 1,
        "img": "systems/pf2e/icons/default-icons/hazard.svg",
        "lightAlpha": 1,
        "lightAngle": 360,
        "lightAnimation": {
            "intensity": 5,
            "speed": 5
        },
        "lockRotation": false,
        "name": "Boiling Fountains",
        "randomImg": false,
        "rotation": 0,
        "scale": 1,
        "sightAngle": 360,
        "tint": null,
        "vision": false,
        "width": 1
    },
    "type": "hazard"
}
