{
    "_id": "3qqvnC2U8W26yae7",
    "data": {
        "actionCategory": {
            "value": ""
        },
        "actionType": {
            "value": "passive"
        },
        "actions": {
            "value": ""
        },
        "description": {
            "chat": "",
            "unidentified": "",
            "value": "<p>Something speaks to you from beyond the stars or below the earth. Ancient and unknowable, this alien influence presses against your mind.</p>\n<p><strong>Spell List</strong> occult</p>\n<p><strong>Bloodline Skills</strong> Intimidation, Occultism</p>\n<p><strong>Granted Spells:</strong> cantrip @Compendium[pf2e.spells-srd.Daze]{Daze}, 1st: @Compendium[pf2e.spells-srd.Spider Sting]{Spider Sting}, 2nd: @Compendium[pf2e.spells-srd.Touch of Idiocy]{Touch of Idiocy}, 3rd: @Compendium[pf2e.spells-srd.Vampiric Touch]{Vampiric Touch}, 4th: @Compendium[pf2e.spells-srd.Confusion]{Confusion}, 5th: @Compendium[pf2e.spells-srd.Black Tentacles]{Black Tentacles}, 6th: @Compendium[pf2e.spells-srd.Feeblemind]{Feeblemind}, 7th: @Compendium[pf2e.spells-srd.Warp Mind]{Warp Mind}, 8th: @Compendium[pf2e.spells-srd.Uncontrollable Dance]{Uncontrollable Dance}, 9th: @Compendium[pf2e.spells-srd.Spirit Song]{Spirit Song}</p>\n<p><strong>Bloodline Spells</strong> initial: @Compendium[pf2e.spells-srd.Tentacular Limbs]{Tentacular Limbs}, advanced: @Compendium[pf2e.spells-srd.Aberrant Whispers]{Aberrant Whispers}, greater: @Compendium[pf2e.spells-srd.Unusual Anatomy]{Unusual Anatomy}</p>\n<p><strong>Blood Magic</strong> Aberrant whispers shield one target's mind or your own, granting a +2 status bonus to Will saving throws for 1 round.</p>\n<p>@Compendium[pf2e.feature-effects.Effect: Aberrant Blood Magic]{Effect: Aberrant Blood Magic}</p>"
        },
        "featType": {
            "value": "classfeature"
        },
        "level": {
            "value": 1
        },
        "location": "",
        "prerequisites": {
            "value": ""
        },
        "rules": [],
        "source": {
            "value": ""
        },
        "traits": {
            "custom": "",
            "rarity": {
                "value": "common"
            },
            "value": [
                "sorcerer"
            ]
        }
    },
    "effects": [
        {
            "_id": "ayY9AN6t2ygxINaT",
            "changes": [
                {
                    "key": "data.skills.itm.rank",
                    "mode": 4,
                    "value": 1
                },
                {
                    "key": "data.skills.occ.rank",
                    "mode": 4,
                    "value": 1
                }
            ],
            "disabled": false,
            "duration": {
                "rounds": null,
                "seconds": null,
                "startRound": null,
                "startTime": null,
                "startTurn": null,
                "turns": null
            },
            "flags": {},
            "icon": "systems/pf2e/icons/features/classes/aberrant.jpg",
            "label": "Bloodline: Aberrant",
            "origin": "",
            "tint": "",
            "transfer": true
        }
    ],
    "flags": {},
    "img": "systems/pf2e/icons/features/classes/aberrant.jpg",
    "name": "Bloodline: Aberrant",
    "permission": {
        "default": 0
    },
    "type": "feat"
}
