{
    "_id": "FeBsYn2mHfMVDZvw",
    "data": {
        "actionCategory": {
            "value": ""
        },
        "actionType": {
            "value": "passive"
        },
        "actions": {
            "value": ""
        },
        "description": {
            "chat": "",
            "unidentified": "",
            "value": "<p>You zealously bear your deity's favored weapon. If it's uncommon, you gain access to it. If it's an unarmed attack with a d4 damage die or a simple weapon, increase the damage die by one step (d4 to d6, d6 to d8, d8 to d10, d10 to d12).</p>"
        },
        "featType": {
            "value": "classfeature"
        },
        "level": {
            "value": "1"
        },
        "prerequisites": {
            "value": ""
        },
        "rules": [],
        "source": {
            "value": ""
        },
        "traits": {
            "custom": "",
            "rarity": {
                "value": "common"
            },
            "value": [
                "champion"
            ]
        }
    },
    "effects": [],
    "flags": {},
    "img": "systems/pf2e/icons/features/classes/deific-weapon.jpg",
    "name": "Deific Weapon",
    "permission": {
        "default": 0
    },
    "type": "feat"
}
