{
    "_id": "ERwuazupczhUSZ73",
    "data": {
        "actionCategory": {
            "value": ""
        },
        "actionType": {
            "value": "passive"
        },
        "actions": {
            "value": ""
        },
        "description": {
            "chat": "",
            "unidentified": "",
            "value": "<p>Your devotion attracts a spirit of your deity's alignment. Once you choose an ally, your choice can't be changed.<br /></p>\n<p>The following are divine allies:<br /></p>\n<p><strong>Blade Ally</strong>: A spirit of battle dwells within your armaments. Select one weapon or @Compendium[pf2e.equipment-srd.Handwraps of Mighty Blows]{Handwraps of Mighty Blows (+1)} when you make your daily preparations. In your hands, the item gains the effect of a property rune. For a champion following the tenets of good, choose @Compendium[pf2e.feat-effects.Effect: Blade Ally Disrupting Rune]{Effect: Blade Ally Disrupting Rune}, @Compendium[pf2e.feat-effects.Effect: Blade Ally Ghost Touch Rune]{Effect: Blade Ally Ghost Touch Rune},<em>returning</em>, or<em>shifting</em>. You also gain the weapon's critical specialization effect.<br /><span id=\"ctl00_MainContent_DetailedOutput\"></span></p>\n<p>If you are a champion following the tenets of evil, you can choose the following property runes: @Compendium[pf2e.feat-effects.Effect: Blade Ally Fearsome Rune]{Effect: Blade Ally Fearsome Rune}, returning, or shifting.</p>\n<p><strong>Shield Ally</strong>: A spirit of protection dwells within your shield. In your hands, the shield's Hardness increases by 2 and its HP and BT increase by half.<br /></p>\n<p><strong>Steed Ally</strong>: You gain a young animal companion as a mount. Ordinarily, your animal companion is one that has the mount special ability, such as a horse. You can select a different animal companion (GM's discretion), but this ability doesn't grant it the mount special ability.</p>"
        },
        "featType": {
            "value": "classfeature"
        },
        "level": {
            "value": "3"
        },
        "prerequisites": {
            "value": ""
        },
        "rules": [],
        "source": {
            "value": ""
        },
        "traits": {
            "custom": "",
            "rarity": {
                "value": "common"
            },
            "value": [
                "champion"
            ]
        }
    },
    "effects": [],
    "flags": {},
    "img": "systems/pf2e/icons/features/classes/divine-ally.jpg",
    "name": "Divine Ally",
    "permission": {
        "default": 0
    },
    "type": "feat"
}
