{
    "_id": "DqWr3LqUpT3Xi2xq",
    "data": {
        "actionCategory": {
            "value": ""
        },
        "actionType": {
            "value": "passive"
        },
        "actions": {
            "value": ""
        },
        "description": {
            "chat": "",
            "unidentified": "",
            "value": "<p>You've learned to move quickly to avoid explosions, dragon's breath, and worse. Your proficiency rank for Reflex saves increases to master. When you roll a success on a Reflex save, you get a critical success instead.</p>"
        },
        "featType": {
            "value": "classfeature"
        },
        "level": {
            "value": 15
        },
        "location": "",
        "prerequisites": [],
        "rules": [
            {
                "key": "PF2E.RuleElement.Note",
                "selector": "reflex",
                "text": "<p class='compact-text'><strong>{item|name}</strong> When you roll a success on a Reflex save, you get a critical success instead.</p>"
            }
        ],
        "source": {
            "value": ""
        },
        "traits": {
            "custom": "",
            "rarity": {
                "value": "common"
            },
            "value": [
                "alchemist",
                "fighter",
                "investigator"
            ]
        }
    },
    "effects": [
        {
            "_id": "oA9lW6AYwX3RM7Bb",
            "changes": [
                {
                    "key": "data.saves.reflex.rank",
                    "mode": 4,
                    "value": 3
                }
            ],
            "disabled": false,
            "duration": {
                "rounds": null,
                "seconds": null,
                "startRound": null,
                "startTime": null,
                "startTurn": null,
                "turns": null
            },
            "flags": {},
            "icon": "systems/pf2e/icons/features/classes/evasion.jpg",
            "label": "Evasion (Level 15)",
            "origin": "",
            "tint": "",
            "transfer": true
        }
    ],
    "flags": {},
    "img": "systems/pf2e/icons/features/classes/evasion.jpg",
    "name": "Evasion (Level 15)",
    "permission": {
        "default": 0
    },
    "type": "feat"
}
