{
    "_id": "N1ugDqZlslxbp3Uy",
    "data": {
        "actionCategory": {
            "value": ""
        },
        "actionType": {
            "value": "passive"
        },
        "actions": {
            "value": ""
        },
        "description": {
            "value": "<p>Your proficiency ranks for divine spell attack rolls and spell DCs increase to master.</p>"
        },
        "featType": {
            "value": "classfeature"
        },
        "level": {
            "value": 15
        },
        "location": "",
        "prerequisites": [],
        "rules": [],
        "source": {
            "value": ""
        },
        "traits": {
            "custom": "",
            "rarity": {
                "value": "common"
            },
            "value": [
                "cleric"
            ]
        }
    },
    "effects": [],
    "flags": {},
    "img": "systems/pf2e/icons/features/classes/warpriest.jpg",
    "name": "Final Doctrine (Warpriest)",
    "permission": {
        "default": 0
    },
    "type": "feat"
}
