{
    "_id": "flEx8eY0NinF9XZU",
    "data": {
        "actionCategory": {
            "value": ""
        },
        "actionType": {
            "value": "passive"
        },
        "actions": {
            "value": ""
        },
        "description": {
            "chat": "",
            "unidentified": "",
            "value": "<p>As a master detective, you can solve any case and find all the clues available. If you're pursuing the subject of a lead and you enter a new location that includes another clue toward solving the mystery, the GM informs you of the existence of the clue and its type: an object, person, spell effect, or the like.</p>\n<p>When you find the clue, the GM informs you that you've done so. If there is more than one clue in the location, the GM chooses one to inform you about. When you find any of the clues in that location, the GM informs you that you've done so, even if it wasn't the clue they'd chosen or there are other clues you haven't found.</p>\n<p>Your proficiency rank for your investigator class DC increases to master.</p>"
        },
        "featType": {
            "value": "classfeature"
        },
        "level": {
            "value": 19
        },
        "location": "",
        "prerequisites": {
            "value": ""
        },
        "rules": [],
        "source": {
            "value": ""
        },
        "traits": {
            "custom": "",
            "rarity": {
                "value": "common"
            },
            "value": [
                "investigator"
            ]
        }
    },
    "effects": [
        {
            "_id": "UdXpM5foxPW4OLCZ",
            "changes": [
                {
                    "key": "data.attributes.classDC.rank",
                    "mode": 4,
                    "value": 3
                }
            ],
            "disabled": false,
            "duration": {
                "rounds": null,
                "seconds": null,
                "startRound": null,
                "startTime": null,
                "startTurn": null,
                "turns": null
            },
            "flags": {},
            "icon": "systems/pf2e/icons/features/classes/master-detective.jpg",
            "label": "Master Detective",
            "origin": "",
            "tint": "",
            "transfer": true
        }
    ],
    "flags": {},
    "img": "systems/pf2e/icons/features/classes/master-detective.jpg",
    "name": "Master Detective",
    "permission": {
        "default": 0
    },
    "type": "feat"
}
