{
    "_id": "CoRfFkisEsHE1e43",
    "data": {
        "actionCategory": {
            "value": ""
        },
        "actionType": {
            "value": "passive"
        },
        "actions": {
            "value": ""
        },
        "description": {
            "chat": "",
            "unidentified": "",
            "value": "<p>You can adjust your body to make unarmed attacks infused with the mystic energy of rare metals. Your unarmed attacks are treated as cold iron and silver. This allows you to deal more damage to a variety of supernatural creatures, such as demons, devils, and fey.</p>"
        },
        "featType": {
            "value": "classfeature"
        },
        "level": {
            "value": 9
        },
        "location": "",
        "prerequisites": {
            "value": ""
        },
        "rules": [
            {
                "key": "PF2E.RuleElement.DamageDice",
                "predicate": {
                    "all": [
                        "unarmed"
                    ],
                    "not": [
                        "suppress-metal-strike"
                    ]
                },
                "selector": "damage",
                "traits": [
                    "silver",
                    "coldiron"
                ]
            }
        ],
        "source": {
            "value": ""
        },
        "traits": {
            "custom": "",
            "rarity": {
                "value": "common"
            },
            "value": [
                "monk"
            ]
        }
    },
    "effects": [],
    "flags": {},
    "img": "systems/pf2e/icons/features/classes/metal-strikes.jpg",
    "name": "Metal Strikes",
    "permission": {
        "default": 0
    },
    "type": "feat"
}
