{
    "_id": "peEXunfbSD8WcMFk",
    "data": {
        "actionCategory": {
            "value": ""
        },
        "actionType": {
            "value": "passive"
        },
        "actions": {
            "value": ""
        },
        "description": {
            "chat": "",
            "unidentified": "",
            "value": "<p>You're honorable, forthright, and committed to pushing back the forces of cruelty. You gain the Retributive Strike champion's reaction and the @Compendium[pf2e.spells-srd.Lay on Hands]{Lay on Hands} devotion spell. After the tenets of good, add these tenets:</p>\n<ul>\n<li>You must act with honor, never taking advantage of others, lying, or cheating.</li>\n<li>You must respect the lawful authority of legitimate leadership wherever you go, and follow its laws.</li>\n</ul>\n<h2 class=\"title\">Champion's Reaction</h2>\n<p>@Compendium[pf2e.actionspf2e.Retributive Strike]{Retributive Strike} <span style=\"font-family: 'Pathfinder2eActions'; font-size: 1.8em; display: inline;\">R</span></p>\n<hr />\n<p>You protect your ally and strike your foe. The ally gains resistance to all damage against the triggering damage equal to 2 + your level. If the foe is within reach, make a melee Strike against it.</p>\n<h2 class=\"title\">Divine Smite<span style=\"float: right;\">Level 9</span></h2>\n<p>You surround evil targets in a punishing halo. If you hit with your Retributive Strike, the target takes persistent good damage equal to your Charisma modifier.</p>\n<h2 class=\"title\">Exalt<span style=\"float: right;\">Level 11</span></h2>\n<p>When you use Retributive Strike, each ally within 15 feet of you with the target in their melee reach can spend a reaction to Strike the target with a -5 penalty.</p>"
        },
        "featType": {
            "value": "classfeature"
        },
        "level": {
            "value": 1
        },
        "location": "",
        "prerequisites": {
            "value": ""
        },
        "rules": [],
        "source": {
            "value": ""
        },
        "traits": {
            "custom": "",
            "rarity": {
                "value": "common"
            },
            "value": [
                "champion"
            ]
        }
    },
    "effects": [],
    "flags": {},
    "img": "systems/pf2e/icons/features/classes/paladin-lawful-good.jpg",
    "name": "Paladin",
    "permission": {
        "default": 0
    },
    "type": "feat"
}
