{
    "_id": "0H2LxtiZTJ275pSD",
    "data": {
        "actionCategory": {
            "value": ""
        },
        "actionType": {
            "value": "passive"
        },
        "actions": {
            "value": ""
        },
        "description": {
            "chat": "",
            "unidentified": "",
            "value": "<p>You are nigh-unmatched with any weapon. Your proficiency ranks for simple weapons, martial weapons, and unarmed attacks increase to legendary, and your proficiency rank for advanced weapons increases to master. Your proficiency rank for your fighter class DC increases to master.</p>"
        },
        "featType": {
            "value": "classfeature"
        },
        "level": {
            "value": 19
        },
        "location": "",
        "prerequisites": {
            "value": ""
        },
        "rules": [],
        "source": {
            "value": ""
        },
        "traits": {
            "custom": "",
            "rarity": {
                "value": "common"
            },
            "value": [
                "fighter"
            ]
        }
    },
    "effects": [
        {
            "_id": "snsoEj8UALBJnx6O",
            "changes": [
                {
                    "key": "data.martial.simple.rank",
                    "mode": 4,
                    "value": 4
                },
                {
                    "key": "data.martial.unarmed.rank",
                    "mode": 4,
                    "value": 4
                },
                {
                    "key": "data.martial.martial.rank",
                    "mode": 4,
                    "value": 4
                },
                {
                    "key": "data.martial.advanced.rank",
                    "mode": 4,
                    "value": 3
                },
                {
                    "key": "data.attributes.classDC.rank",
                    "mode": 4,
                    "value": 3
                }
            ],
            "disabled": false,
            "duration": {
                "rounds": null,
                "seconds": null,
                "startRound": null,
                "startTime": null,
                "startTurn": null,
                "turns": null
            },
            "flags": {},
            "icon": "systems/pf2e/icons/features/classes/versatile-legend.jpg",
            "label": "Versatile Legend",
            "origin": "",
            "tint": "",
            "transfer": true
        }
    ],
    "flags": {},
    "img": "systems/pf2e/icons/features/classes/versatile-legend.jpg",
    "name": "Versatile Legend",
    "permission": {
        "default": 0
    },
    "type": "feat"
}
