{
    "_id": "UQ7vZgmfK0VSFS8A",
    "data": {
        "description": {
            "chat": "",
            "unidentified": "",
            "value": "<p>Aberrant whispers shield one target's mind or your own, granting a +2 status bonus to Will saving throws for 1 round.</p>"
        },
        "duration": {
            "expiry": "turn-start",
            "sustained": false,
            "unit": "rounds",
            "value": 1
        },
        "level": {
            "value": 1
        },
        "rules": [
            {
                "key": "PF2E.RuleElement.FlatModifier",
                "selector": "will",
                "type": "status",
                "value": 2
            },
            {
                "key": "PF2E.RuleElement.TokenEffectIcon"
            }
        ],
        "source": {
            "value": ""
        },
        "start": {
            "initiative": null,
            "value": 0
        },
        "traits": {
            "custom": "",
            "rarity": {
                "value": "common"
            },
            "value": []
        }
    },
    "effects": [],
    "flags": {},
    "img": "systems/pf2e/icons/features/classes/aberrant.jpg",
    "name": "Effect: Aberrant Blood Magic",
    "permission": {
        "default": 0
    },
    "type": "effect"
}
