{
    "_id": "NCUXsaj2yFxOVhrK",
    "data": {
        "ability": {
            "value": ""
        },
        "area": {
            "value": ""
        },
        "areasize": {
            "value": ""
        },
        "components": {
            "value": ""
        },
        "cost": {
            "value": "Rare oils worth 480 gp"
        },
        "damage": {
            "applyMod": false,
            "value": ""
        },
        "damageType": {
            "value": ""
        },
        "description": {
            "chat": "",
            "unidentified": "",
            "value": "<p>You transform the target into a skinstitch, a hideous construct covered in the flesh of sentient humanoids.</p>\n<hr />\n<p><span><strong>Critical Success</strong> The target becomes a skinstitch. If it's at least 4 levels lower than you, you can make it a minion which gives it the minion trait. You can have a maximum of four minions under your control. If it doesn't become a minion, you can give it one simple command that it pursues single-mindedly. If you aren't a follower of @Compendium[pf2e.deities.Norgorber]{Norgorber}, it ignores any of your subsequent commands. A follower of Norgorber can give the skinstitch simple commands by presenting a @Compendium[pf2e.equipment-srd.Religious Symbol (Silver)]{Religious Symbol} of the deity and commanding it with a single action that has the auditory and concentrate traits.</span></p>\n<p><span><strong>Success</strong> As critical success, except a skinstitch that doesn't become your minion stays in place and attacks anyone that attacks or tries to move it, rather than following your command.</span></p>\n<p><span><strong>Failure</strong> You fail to create the skinstitch.</span></p>\n<p><span><strong>Critical Failure</strong> You create the skinstitch, but it goes berserk and attempts to kill you, ignoring your commands even if you are a follower of Norgorber.</span></p>"
        },
        "duration": {
            "value": ""
        },
        "hasCounteractCheck": {
            "value": false
        },
        "level": {
            "value": 6
        },
        "location": {
            "value": "Aq01kMb7yAj1VxPX"
        },
        "materials": {
            "value": ""
        },
        "prepared": {
            "value": ""
        },
        "primarycheck": {
            "value": "Religion (Expert)"
        },
        "range": {
            "value": "Touch"
        },
        "rules": [],
        "save": {
            "basic": "",
            "value": ""
        },
        "scaling": {
            "formula": "",
            "mode": "none"
        },
        "school": {
            "value": "trs"
        },
        "secondarycasters": {
            "value": "1"
        },
        "secondarycheck": {
            "value": "Crafting"
        },
        "source": {
            "value": ""
        },
        "spellCategorie": {
            "value": "ritual"
        },
        "spellCategory": {
            "value": ""
        },
        "spellType": {
            "value": "attack"
        },
        "sustained": {
            "value": false
        },
        "target": {
            "value": "1 frame covered in the skin of sentient humanoids"
        },
        "time": {
            "value": "1 day"
        },
        "traditions": {
            "value": []
        },
        "traits": {
            "custom": "",
            "rarity": {
                "value": "uncommon"
            },
            "selected": {
                "transmutation": "Transmutation"
            },
            "value": [
                "transmutation"
            ]
        }
    },
    "effects": [],
    "flags": {},
    "img": "systems/pf2e/icons/spells/create-skinstitch.jpg",
    "name": "Create Skinstitch",
    "permission": {
        "default": 0
    },
    "type": "spell"
}
