{
    "_id": "3VxVbZqIRvpKkg3O",
    "data": {
        "ability": {
            "value": ""
        },
        "area": {
            "areaType": "cone",
            "value": 15
        },
        "areasize": {
            "value": "15-foot cone"
        },
        "components": {
            "value": "somatic, verbal"
        },
        "cost": {
            "value": ""
        },
        "damage": {
            "applyMod": false,
            "value": "2d6 persistent"
        },
        "damageType": {
            "value": "poison"
        },
        "description": {
            "chat": "",
            "unidentified": "",
            "value": "<p>Toxic spores swarm over creatures in the area, causing them to erupt in grotesque fungal growths. These noxious growths deal [[/r 2d6 #persistent poison]] persistent poison damage, and each creature must attempt a Fortitude save.</p>\n<hr />\n<p><strong>Critical Success</strong>: The creature is unaffected.</p>\n<p><strong>Success</strong>: The target takes half the persistent poison damage.</p>\n<p><strong>Failure</strong>: The target takes the full persistent poison damage. While it is taking this persistent poison damage, it has weakness 1 to fire and weakness 1 to slashing.</p>\n<p><strong>Critical Failure</strong>: As failure, but double the persistent poison damage. While it is taking this persistent poison damage, it has weakness 2 to fire and weakness 2 to slashing.</p>\n<hr />\n<p><strong>Heightened (+2)</strong> The persistent damage increases by 2d6, and the weakness increases by 1, or by 2 on a critical failure.</p>"
        },
        "duration": {
            "value": ""
        },
        "hasCounteractCheck": {
            "value": false
        },
        "level": {
            "value": 2
        },
        "location": {
            "value": ""
        },
        "materials": {
            "value": ""
        },
        "prepared": {
            "value": false
        },
        "primarycheck": {
            "value": ""
        },
        "range": {
            "value": "touch"
        },
        "rules": [],
        "save": {
            "basic": "",
            "value": "fortitude"
        },
        "scaling": {
            "formula": "2d6",
            "mode": "level2"
        },
        "school": {
            "value": "con"
        },
        "secondarycasters": {
            "value": ""
        },
        "secondarycheck": {
            "value": ""
        },
        "source": {
            "value": ""
        },
        "spellCategorie": {
            "value": "spell"
        },
        "spellCategory": {
            "value": ""
        },
        "spellType": {
            "value": "save"
        },
        "sustained": {
            "value": false
        },
        "target": {
            "value": ""
        },
        "time": {
            "value": "2"
        },
        "traditions": {
            "value": [
                "primal"
            ]
        },
        "traits": {
            "custom": "",
            "rarity": {
                "value": "common"
            },
            "value": [
                "conjuration"
            ]
        }
    },
    "effects": [],
    "flags": {},
    "img": "systems/pf2e/icons/spells/fungal-infestation.jpg",
    "name": "Fungal Infestation",
    "permission": {
        "default": 0
    },
    "type": "spell"
}
