{
    "_id": "d9sBzPOXX3KT8uTu",
    "data": {
        "ability": {
            "value": ""
        },
        "area": {
            "value": ""
        },
        "areasize": {
            "value": ""
        },
        "components": {
            "value": "somatic, verbal"
        },
        "cost": {
            "value": ""
        },
        "damage": {
            "applyMod": false,
            "value": "10d6"
        },
        "damageType": {
            "value": "piercing"
        },
        "description": {
            "chat": "",
            "unidentified": "",
            "value": "<p>This gruesome spell causes the target to grow excess limbs and organs, whether it be fingers multiplying until hands resemble bushes, eyes popping open in bizarre places, legs sprouting from the side of the body, or some other result. The target takes [[/r 10d6 #piercing]] piercing damage (basic Fortitude save) as the new features erupt. This spell has no effect on a target with a mutable anatomy or no limbs, such as an ooze or a protean. The growths rot rapidly and fall away after 1 round.</p>\n<p>In addition, unless the initial target critically succeeds, creatures within 30 feet of the target, including the target, must attempt Will saves, after which they are temporarily immune to this secondary effect of <em>grisly growths</em> for 1 hour. This additional effect is a mental and visual effect.</p>\n<hr />\n<p><strong>Success</strong> The creature is unaffected.</p>\n<p><strong>Failure</strong> The creature is @Compendium[pf2e.conditionitems.Sickened]{Sickened 1}.</p>\n<p><strong>Critical Failure</strong> The character is @Compendium[pf2e.conditionitems.Sickened]{Sickened 2}.</p>\n<hr />\n<p><strong>Heightened (+1)</strong> The damage increases by [[/r 2d6 #piercing]].</p>"
        },
        "duration": {
            "value": ""
        },
        "hasCounteractCheck": {
            "value": false
        },
        "level": {
            "value": 5
        },
        "location": {
            "value": ""
        },
        "materials": {
            "value": ""
        },
        "prepared": {
            "value": false
        },
        "primarycheck": {
            "value": ""
        },
        "range": {
            "value": "60 feet"
        },
        "rules": [],
        "save": {
            "basic": "basic",
            "value": "fortitude"
        },
        "scaling": {
            "formula": "2d6",
            "mode": "level1"
        },
        "school": {
            "value": "trs"
        },
        "secondarycasters": {
            "value": ""
        },
        "secondarycheck": {
            "value": ""
        },
        "source": {
            "value": ""
        },
        "spellCategorie": {
            "value": "spell"
        },
        "spellCategory": {
            "value": ""
        },
        "spellType": {
            "value": "save"
        },
        "sustained": {
            "value": false
        },
        "target": {
            "value": "1 corporeal creature"
        },
        "time": {
            "value": "2"
        },
        "traditions": {
            "value": [
                "arcane",
                "primal"
            ]
        },
        "traits": {
            "custom": "",
            "rarity": {
                "value": "common"
            },
            "value": [
                "transmutation"
            ]
        }
    },
    "effects": [],
    "flags": {},
    "img": "systems/pf2e/icons/spells/grisly-growths.jpg",
    "name": "Grisly Growths",
    "permission": {
        "default": 0
    },
    "type": "spell"
}
