{
    "_id": "DZ9bzXYqMjAK9TzC",
    "data": {
        "ability": {
            "value": ""
        },
        "area": {
            "areaType": "",
            "value": null
        },
        "areasize": {
            "value": "20-foot burst"
        },
        "components": {
            "value": "somatic, verbal"
        },
        "cost": {
            "value": ""
        },
        "damage": {
            "applyMod": false,
            "value": "3d6"
        },
        "damageType": {
            "value": "bludgeoning"
        },
        "description": {
            "chat": "",
            "unidentified": "",
            "value": "<p>You call upon sacred energy to amplify a vial of holy water, tossing it an incredible distance. It explodes in an enormous burst that deals 3d6 bludgeoning damage to creatures in the area from the cascade of water. The water deals an additional 6d6 positive damage to undead and 6d6 good damage to fiends.</p>\n<hr />\n<p><strong>Heightened (+1)</strong> The bludgeoning damage increases by 1d6, and the additional positive and good damage each increase by 2d6.</p>"
        },
        "duration": {
            "value": ""
        },
        "hasCounteractCheck": {
            "value": false
        },
        "level": {
            "value": 4
        },
        "location": {
            "value": ""
        },
        "materials": {
            "value": "one vial of holy water"
        },
        "prepared": {
            "value": ""
        },
        "primarycheck": {
            "value": ""
        },
        "range": {
            "value": "500 feet"
        },
        "rules": [],
        "save": {
            "basic": "basic",
            "value": "reflex"
        },
        "scaling": {
            "formula": "1d6",
            "mode": "level1"
        },
        "school": {
            "value": "evo"
        },
        "secondarycasters": {
            "value": ""
        },
        "secondarycheck": {
            "value": ""
        },
        "source": {
            "value": ""
        },
        "spellCategorie": {
            "value": "spell"
        },
        "spellCategory": {
            "value": ""
        },
        "spellType": {
            "value": "save"
        },
        "sustained": {
            "value": false
        },
        "target": {
            "value": ""
        },
        "time": {
            "value": "2"
        },
        "traditions": {
            "value": [
                "divine"
            ]
        },
        "traits": {
            "custom": "",
            "rarity": {
                "value": "common"
            },
            "value": [
                "evocation",
                "good",
                "positive",
                "water"
            ]
        }
    },
    "effects": [],
    "flags": {},
    "img": "systems/pf2e/icons/spells/holy-cascade.jpg",
    "name": "Holy Cascade",
    "permission": {
        "default": 0
    },
    "type": "spell"
}
