{
    "_id": "3ehSrqTAm7IPqbIZ",
    "data": {
        "ability": {
            "value": ""
        },
        "area": {
            "value": "30-foot emanation"
        },
        "areasize": {
            "value": ""
        },
        "components": {
            "value": "somatic, verbal"
        },
        "cost": {
            "value": ""
        },
        "damage": {
            "applyMod": false,
            "value": ""
        },
        "damageType": {
            "value": ""
        },
        "description": {
            "chat": "",
            "unidentified": "",
            "value": "<p>You open your mind to the metaphysical, enabling you to sense nearby spirits. Even if you aren't @Compendium[pf2e.actionspf2e.Search]{Searching}, you get a check to find haunts and spirits in the area. You gain a +1 status bonus to the following checks regarding haunts or spirits: Perception checks to @Compendium[pf2e.actionspf2e.Seek]{Seek}, attempts to @Compendium[pf2e.actionspf2e.Recall Knowledge (Occultism)]{Recall Knowledge}, skill checks to determine the reason for their existence, and skill checks to disable a haunt. You also gain a +1 status bonus to AC and saving throws against haunts and spirits.</p>\n<hr />\n<p><strong>Heightened (6th)</strong> The spell's duration lasts until the next time you make your daily preparations.</p>"
        },
        "duration": {
            "value": "10 minutes"
        },
        "hasCounteractCheck": {
            "value": false
        },
        "level": {
            "value": 2
        },
        "location": {
            "value": ""
        },
        "materials": {
            "value": ""
        },
        "prepared": {
            "value": false
        },
        "primarycheck": {
            "value": ""
        },
        "range": {
            "value": ""
        },
        "rules": [],
        "save": {
            "basic": "",
            "value": ""
        },
        "scaling": {
            "formula": "",
            "mode": "none"
        },
        "school": {
            "value": "div"
        },
        "secondarycasters": {
            "value": ""
        },
        "secondarycheck": {
            "value": ""
        },
        "source": {
            "value": ""
        },
        "spellCategorie": {
            "value": "spell"
        },
        "spellCategory": {
            "value": ""
        },
        "spellType": {
            "value": "attack"
        },
        "sustained": {
            "value": false
        },
        "target": {
            "value": ""
        },
        "time": {
            "value": "2"
        },
        "traditions": {
            "value": [
                "divine",
                "occult"
            ]
        },
        "traits": {
            "custom": "",
            "rarity": {
                "value": "common"
            },
            "value": [
                "detection",
                "divination",
                "mental"
            ]
        }
    },
    "effects": [],
    "flags": {},
    "img": "systems/pf2e/icons/spells/spirit-sense.jpg",
    "name": "Spirit Sense",
    "permission": {
        "default": 0
    },
    "type": "spell"
}
