{
    "_id": "IoHxAkK0uGqrgtWl",
    "data": {
        "ability": {
            "value": ""
        },
        "area": {
            "value": ""
        },
        "areasize": {
            "value": ""
        },
        "components": {
            "value": "somatic, verbal"
        },
        "cost": {
            "value": ""
        },
        "damage": {
            "applyMod": false,
            "value": "3d4"
        },
        "damageType": {
            "value": "piercing"
        },
        "description": {
            "chat": "",
            "unidentified": "",
            "value": "<p>You duplicate the venomous sting of a wyvern. You deal [[/r 3d4 #piercing]] piercing damage to the touched creature and afflict it with wyvern venom. If the target takes piercing damage, they must attempt a Fortitude save.</p>\n<hr />\n<p><strong>Critical Success</strong> The target is unaffected.</p><p><strong>Success</strong> The target takes [[/r 5d6 #poison]] poison damage.</p>\n<p><strong>Failure</strong> The target is afflicted with Wyvern Venom at stage 1.</p>\n<p><strong>Critical Failure</strong> The target is afflicted with wyvern venom at stage 2.</p><hr /><p><strong>Wyvern Venom</strong> (poison) <strong>Level</strong> 9</p><p><strong>Maximum Duration</strong> 6 rounds</p><p><strong>Stage 1</strong> [[/r 5d6 #poison]] poison damage (1 round)</p><p><strong>Stage 2</strong> [[/r 6d6 #poison]] poison damage (1 round)</p><p><strong>Stage 3</strong> [[/r 8d6 #poison]] poison damage (1 round)</p>"
        },
        "duration": {
            "value": ""
        },
        "hasCounteractCheck": {
            "value": false
        },
        "level": {
            "value": 5
        },
        "location": {
            "value": "Z9TGJ4zsSKnZVV9u"
        },
        "materials": {
            "value": ""
        },
        "prepared": {
            "value": ""
        },
        "primarycheck": {
            "value": ""
        },
        "range": {
            "value": "touch"
        },
        "rules": [],
        "save": {
            "basic": "",
            "value": "fortitude"
        },
        "scaling": {
            "formula": "",
            "mode": "none"
        },
        "school": {
            "value": "nec"
        },
        "secondarycasters": {
            "value": ""
        },
        "secondarycheck": {
            "value": ""
        },
        "source": {
            "value": ""
        },
        "spellCategorie": {
            "value": "spell"
        },
        "spellCategory": {
            "value": ""
        },
        "spellType": {
            "value": "save"
        },
        "sustained": {
            "value": false
        },
        "target": {
            "value": "1 creature"
        },
        "time": {
            "value": "2"
        },
        "traditions": {
            "custom": "",
            "value": [
                "arcane",
                "primal"
            ]
        },
        "traits": {
            "custom": "",
            "rarity": {
                "value": "uncommon"
            },
            "selected": [],
            "value": [
                "necromancy",
                "poison"
            ]
        }
    },
    "effects": [],
    "flags": {},
    "img": "systems/pf2e/icons/spells/wyvern-sting.jpg",
    "name": "Wyvern Sting",
    "permission": {
        "default": 0
    },
    "type": "spell"
}
