{
    "_id": "BFOsMnWfXL1oaWkY",
    "data": {
        "actionCategory": {
            "value": ""
        },
        "actionType": {
            "value": "passive"
        },
        "actions": {
            "value": ""
        },
        "description": {
            "value": "<p>When you are cut or burned, your body responds by forming tough but flexible callouses over the site of the injury. Over time, this makes the most vulnerable sections of your body harder and more resistant to damage. Many steelskin hobgoblins intentionally use blades and flame to scar themselves in intricate patterns, though this isn’t universal. Your flat check to recover from persistent physical (including bleed), energy, or poison damage is DC 13 (rather than DC 15), or DC 8 when provided particularly effective assistance.</p>"
        },
        "featType": {
            "value": "heritage"
        },
        "level": {
            "value": 1
        },
        "location": "",
        "prerequisites": [],
        "rules": [],
        "source": {
            "value": ""
        },
        "traits": {
            "custom": "",
            "rarity": {
                "value": "common"
            },
            "value": [
                "hobgoblin"
            ]
        }
    },
    "effects": [],
    "flags": {},
    "img": "systems/pf2e/icons/default-icons/feat.svg",
    "name": "Steelskin Hobgoblin",
    "permission": {
        "default": 0
    },
    "type": "feat"
}
