{
    "_id": "WaCn0mcivFv1omNK",
    "data": {
        "actionCategory": {
            "value": ""
        },
        "actionType": {
            "value": "passive"
        },
        "actions": {
            "value": ""
        },
        "description": {
            "chat": "",
            "unidentified": "",
            "value": "<p>Your bloodline is noted for their powerful jaws and sharp teeth. You gain a jaws unarmed attack that deals <a class=\"inline-roll roll\" title=\"piercing\" data-mode=\"roll\" data-flavor=\"piercing\" data-formula=\"1d6\"><i class=\"fas fa-dice-d20\"></i> 1d6</a> piercing damage. Your jaws are in the brawling group and have the finesse and unarmed traits</p>"
        },
        "featType": {
            "value": "heritage"
        },
        "level": {
            "value": 1
        },
        "location": "",
        "prerequisites": [],
        "rules": [
            {
                "category": "unarmed",
                "damage": {
                    "base": {
                        "damageType": "piercing",
                        "dice": 1,
                        "die": "d6"
                    }
                },
                "group": "brawling",
                "key": "PF2E.RuleElement.Strike",
                "label": "Jaws",
                "range": "melee",
                "traits": [
                    "finesse",
                    "unarmed"
                ]
            }
        ],
        "source": {
            "value": ""
        },
        "traits": {
            "custom": "",
            "rarity": {
                "value": "common"
            },
            "value": [
                "kobold"
            ]
        }
    },
    "effects": [],
    "flags": {},
    "img": "systems/pf2e/icons/features/ancestry/strongjaw-kobold.jpg",
    "name": "Strongjaw Kobold",
    "permission": {
        "default": 0
    },
    "type": "feat"
}
