{
    "_id": "S1062No0sYH35AhN",
    "data": {
        "actionCategory": {
            "value": ""
        },
        "actionType": {
            "value": "passive"
        },
        "actions": {
            "value": ""
        },
        "description": {
            "value": "<p>Your skin can detect the slightest changes in ocean currents. You gain imprecise wavesense with a range of 30 feet, allowing you to sense motion in the water around you. You also gain a +1 circumstance bonus to Survival checks to Sense Direction in aquatic environments.</p>"
        },
        "featType": {
            "value": "heritage"
        },
        "level": {
            "value": 1
        },
        "location": "",
        "prerequisites": [],
        "rules": [],
        "source": {
            "value": ""
        },
        "traits": {
            "custom": "",
            "rarity": {
                "value": "common"
            },
            "value": [
                "azarketi"
            ]
        }
    },
    "effects": [],
    "flags": {},
    "img": "systems/pf2e/icons/default-icons/feat.svg",
    "name": "Tactile Azarketi",
    "permission": {
        "default": 0
    },
    "type": "feat"
}
