{
    "_id": "7s57JDCaiYYCAdFx",
    "data": {
        "abilityBoostLevels": {
            "value": [
                5,
                10,
                15,
                20
            ]
        },
        "ancestryFeatLevels": {
            "value": [
                1,
                5,
                9,
                13,
                17
            ]
        },
        "attacks": {
            "advanced": 0,
            "martial": 0,
            "other": {
                "name": "",
                "rank": 0
            },
            "simple": 1,
            "unarmed": 1
        },
        "classDC": 0,
        "classFeatLevels": {
            "value": [
                "2",
                "4",
                "6",
                "8",
                "10",
                "12",
                "14",
                "16",
                "18",
                "20"
            ]
        },
        "defenses": {
            "heavy": 0,
            "light": 1,
            "medium": 1,
            "unarmored": 1
        },
        "description": {
            "value": "<p><em>The power of nature is impossible to resist. It can bring ruin to the stoutest fortress in minutes, reducing even the mightiest works to rubble, burning them to ash, burying them beneath an avalanche of snow, or drowning them beneath the waves. It can provide endless bounty and breathtaking splendor to those who respect it - and an agonizing death to those who take it too lightly. You are one of those who hear nature's call. You stand in awe of the majesty of its power and give yourself over to its service.</em><br /><br /><strong>Key Ability: WISDOM</strong><br />At 1st level, your class gives you an ability boost to Wisdom.<br /><br /><strong>Hit Points: 8 plus your Constitution modifier</strong><br />You increase your maximum number of HP by this number at 1st level and every level thereafter.</p>\n<h1>Roleplaying the Druid</h1>\n<h2>During Combat Encounters...</h2>\n<p>You call upon the forces of nature to defeat your enemies and protect your allies. You cast spells that draw upon primal magic to protect yourself and your friends, heal their wounds, or summon deadly animals to fight at your side. Depending on your bond to nature, you might call upon powerful elemental magic or change shape into a terrifying beast.</p>\n<h2>During Social Encounters...</h2>\n<p>You represent balance and a reasoned approach to problems, looking for solutions that not only are best for the natural world, but also allow the creatures within it to live in harmony and peace. You often propose compromises that allow both sides to gain what they truly need, even if they can't have all that they desire.</p>\n<h2>While Exploring...</h2>\n<p>Your nature skills are invaluable. You track down enemies, navigate the wilderness, and use spells to detect magical auras around you. You might even ask wild animals to lend their extraordinary senses and scouting abilities to your group.</p>\n<h2>In Downtime...</h2>\n<p>You might craft magic items or potions. Alternatively, your tie to nature might lead you to tend a wilderness area, befriending beasts and healing the wounds caused by civilization. You might even teach sustainable farming and animal husbandry techniques that allow others to subsist off the land without harming the natural balance.</p>\n<h2>You Might...</h2>\n<ul>\n<li>Have a deep and meaningful respect for the power of nature.</li>\n<li>Be in constant awe of the natural world, eager to share it with others but wary of their influence upon it.</li>\n<li>Treat plants and animals as allies, working with them to reach your goals.</li>\n</ul>\n<h2>Others Probably...</h2>\n<ul>\n<li>View you as a representative of nature, and are sure you can control it.</li>\n<li>Assume you're a recluse who avoids society and cities and prefers to live in the wild.</li>\n<li>Consider you a mystic, similar to a priest, but answering only to the forces of nature.</li>\n</ul>\n<h1>Initial Proficiencies</h1>\n<p>At 1st level, you gain the listed proficiency ranks in the following statistics. You are untrained in anything not listed unless you gain a better proficiency rank in some other way.</p>\n<h2>Perception</h2>\n<p>Trained in Perception</p>\n<h2>Saving Throws</h2>\n<p>Trained in Fortitude<br />Trained in Reflex<br />Expert in Will</p>\n<h2>Skills</h2>\n<p>Trained in Nature<br />Trained in one skill determined by your druidic order<br />Trained in a number of additional skills equal to 2 plus your Intelligence modifier</p>\n<h2>Attacks</h2>\n<p>Trained in simple weapons<br />Trained in unarmed attacks</p>\n<h2>Defenses</h2>\n<p>Trained in light armor<br />Trained in medium armor<br />Trained in unarmored defense</p>\n<h2>Spells</h2>\n<p>Trained in primal spell attacks<br />Trained in primal spell DCs</p>\n<h1>Class Features</h1>\n<p>You gain these features as a Druid. Abilities gained at higher levels list the levels at which you gain them next to the features' names.</p>\n<table class=\"pf2-table\">\n<thead>\n<tr>\n<th>Your Level</th>\n<th>Class Features</th>\n</tr>\n</thead>\n<tbody>\n<tr>\n<td>1</td>\n<td>Ancestry and background, initial proficiencies, primal spellcasting, anathema, Druidic language, druidic order, Shield Block, wild empathy</td>\n</tr>\n<tr>\n<td>2</td>\n<td>Druid feat, skill feat</td>\n</tr>\n<tr>\n<td>3</td>\n<td>2nd-level spells, alertness, general feat, great fortitude, skill increase</td>\n</tr>\n<tr>\n<td>4</td>\n<td>Druid feat, skill feat</td>\n</tr>\n<tr>\n<td>5</td>\n<td>3rd-level spells, ability boosts, ancestry feat, lightning reflexes, skill increase</td>\n</tr>\n<tr>\n<td>6</td>\n<td>Druid feat, skill feat</td>\n</tr>\n<tr>\n<td>7</td>\n<td>4th-level spells, expert spellcaster, general feat, skill increase</td>\n</tr>\n<tr>\n<td>8</td>\n<td>Druid feat, skill feat</td>\n</tr>\n<tr>\n<td>9</td>\n<td>5th-level spells, ancestry feat, skill increase</td>\n</tr>\n<tr>\n<td>10</td>\n<td>Ability boosts, druid feat, skill feat</td>\n</tr>\n<tr>\n<td>11</td>\n<td>6th-level spells, druid weapon expertise, general feat, resolve, skill increase</td>\n</tr>\n<tr>\n<td>12</td>\n<td>Druid feat, skill feat</td>\n</tr>\n<tr>\n<td>13</td>\n<td>7th-level spells, ancestry feat, medium armor expertise, skill increase, weapon specialization</td>\n</tr>\n<tr>\n<td>14</td>\n<td>Druid feat, skill feat</td>\n</tr>\n<tr>\n<td>15</td>\n<td>8th-level spells, ability boosts, general feat, master spellcaster, skill increase</td>\n</tr>\n<tr>\n<td>16</td>\n<td>Druid feat, skill feat</td>\n</tr>\n<tr>\n<td>17</td>\n<td>9th-level spells, ancestry feat, skill increase</td>\n</tr>\n<tr>\n<td>18</td>\n<td>Druid feat, skill feat</td>\n</tr>\n<tr>\n<td>19</td>\n<td>General feat, legendary spellcaster, primal hierophant, skill increase</td>\n</tr>\n<tr>\n<td>20</td>\n<td>Ability boosts, druid feat, skill feat</td>\n</tr>\n</tbody>\n</table>\n<h2>Anathema</h2>\n<p style=\"box-sizing: border-box; user-select: text; color: #191813;\">As stewards of the natural order, druids find affronts to nature anathema. If you perform enough acts that are anathema to nature, you lose your magical abilities that come from the druid class, including your primal spellcasting and the benefits of your order. These abilities can be regained only if you demonstrate your repentance by conducting an @Compendium[pf2e.spells-srd.Atone]{Atone} ritual.</p>\n<p style=\"box-sizing: border-box; user-select: text; color: #191813;\">The following acts are anathema to all druids:</p>\n<ul>\n<li>Using metal armor or shields.</li>\n<li>Despoiling natural places.</li>\n<li>Teaching the Druidic language to non-druids.</li>\n</ul>\n<p style=\"box-sizing: border-box; user-select: text; color: #191813;\">Each druidic order also has additional anathema acts, detailed in the order's entry.</p>\n<p style=\"box-sizing: border-box; user-select: text; color: #191813;\">See specific orders for more information.</p>\n<h2>Ancestry and Background</h2>\n<p style=\"box-sizing: border-box; user-select: text; color: #191813;\">In addition to the abilities provided by your class at 1st level, you have the benefits of your selected ancestry and background, as described in Chapter 2.</p>\n<h2>Druidic Language</h2>\n<p style=\"box-sizing: border-box; user-select: text; color: #191813;\">You know Druidic, a secret language known to only druids, in addition to any languages you know through your ancestry. Druidic has its own alphabet. Teaching the Druidic language to non-druids is anathema.</p>\n<h2>Druidic Order</h2>\n<p style=\"box-sizing: border-box; user-select: text; color: #191813;\">Upon becoming a druid, you align yourself with a druidic order, which grants you a class feat, an order spell (see below), and an additional trained skill tied to your order. While you'll always be a member of your initial order, it's not unheard of for a druid to request to study with other orders in search of greater understanding of the natural world, and PC druids are among the most likely to blend the powers of different orders.</p>\n<p style=\"box-sizing: border-box; user-select: text; color: #191813;\">Order spells are a type of focus spell. It costs 1 Focus Point to cast a focus spell, and you start with a focus pool of 1 Focus Point. You refill your focus pool during your daily preparations, and you can regain 1 Focus Point by spending 10 minutes using the Refocus activity to commune with local nature spirits or otherwise tend to the wilderness in a way befitting your order.</p>\n<p style=\"box-sizing: border-box; user-select: text; color: #191813;\">Focus spells are automatically heightened to half your level rounded up, much like cantrips. Focus spells don't require spell slots to cast, and you can't cast them using spell slots. Selecting druid feats can give you more focus spells and increase the size of your focus pool, though your focus pool can never hold more than 3 points. The full rules for focus spells appear in Chapter 7 on page 300.</p>\n<p style=\"box-sizing: border-box; user-select: text; color: #191813;\">Orders can be found here (@Compendium[pf2e.classfeatures.Animal Order]{Animal}, @Compendium[pf2e.classfeatures.Leaf Order]{Leaf}, @Compendium[pf2e.classfeatures.Storm Order]{Storm}, and @Compendium[pf2e.classfeatures.Wild Order]{Wild}).</p>\n<h2>Initial Proficiencies</h2>\n<p style=\"box-sizing: border-box; user-select: text; color: #191813;\">At 1st level you gain a number of proficiencies, representing your basic training. These proficiencies are noted at the start of this class.</p>\n<h2>Primal Spellcasting</h2>\n<p style=\"box-sizing: border-box; user-select: text; color: #191813;\">The power of the wild world flows through you. You can cast primal spells using the Cast a Spell activity, and you can supply material, somatic, and verbal components when casting spells (see Casting Spells on page 302). Because you're a druid, you can usually hold a primal focus (such as holly and mistletoe) for spells requiring material components instead of needing to use a spell component pouch.</p>\n<p style=\"box-sizing: border-box; user-select: text; color: #191813;\">At 1st level, you can prepare two 1st-level spells and five cantrips each morning from the common spells on the primal spell list in this book (page 314), or from other primal spells to which you gain access. Prepared spells remain available to you until you cast them or until you prepare your spells again. The number of spells you can prepare is called your spell slots.</p>\n<p style=\"box-sizing: border-box; user-select: text; color: #191813;\">As you increase in level as a druid, the number of spells you can prepare each day increases, as does the highest level of spell you can cast, as shown in Table 3-11: Druid Spells per Day on page 132.</p>\n<p style=\"box-sizing: border-box; user-select: text; color: #191813;\">Some of your spells require you to attempt a spell attack roll to see how effective they are, or have your enemies roll against your spell DC (typically by attempting a saving throw). Since your key ability is Wisdom, your spell attack rolls and spell DCs use your Wisdom modifier. Details on calculating these statistics appear on page 447.</p>\n<h3><strong>Heightening Spells</strong></h3>\n<p style=\"box-sizing: border-box; user-select: text; color: #191813;\">When you gain spell slots of 2nd level and higher, you can fill those slots with stronger versions of lower-level spells. This increases the spell's level, heightening it to match the spell slot. Many spells have specific improvements when they are heightened to certain levels.</p>\n<h3><strong>Cantrips</strong></h3>\n<p style=\"box-sizing: border-box; user-select: text; color: #191813;\">A cantrip is a special type of spell that doesn't use spell slots. You can cast a cantrip at will, any number of times per day. A cantrip is always automatically heightened to half your level rounded up-this is usually equal to the highest level of spell you can cast as a druid. For example, as a 1st-level druid, your cantrips are 1st-level spells, and as a 5th-level druid, your cantrips are 3rd-level spells.</p>\n<table class=\"pf2-table\">\n<thead>\n<tr>\n<th>Your Level</th>\n<th>Cantrips</th>\n<th>1st</th>\n<th>2nd</th>\n<th>3rd</th>\n<th>4th</th>\n<th>5th</th>\n<th>6th</th>\n<th>7th</th>\n<th>8th</th>\n<th>9th</th>\n<th>10th</th>\n</tr>\n</thead>\n<tbody>\n<tr>\n<td>1</td>\n<td>5</td>\n<td>2</td>\n<td>-</td>\n<td>-</td>\n<td>-</td>\n<td>-</td>\n<td>-</td>\n<td>-</td>\n<td>-</td>\n<td>-</td>\n<td>-</td>\n</tr>\n<tr>\n<td>2</td>\n<td>5</td>\n<td>3</td>\n<td>-</td>\n<td>-</td>\n<td>-</td>\n<td>-</td>\n<td>-</td>\n<td>-</td>\n<td>-</td>\n<td>-</td>\n<td>-</td>\n</tr>\n<tr>\n<td>3</td>\n<td>5</td>\n<td>3</td>\n<td>2</td>\n<td>-</td>\n<td>-</td>\n<td>-</td>\n<td>-</td>\n<td>-</td>\n<td>-</td>\n<td>-</td>\n<td>-</td>\n</tr>\n<tr>\n<td>4</td>\n<td>5</td>\n<td>3</td>\n<td>3</td>\n<td>-</td>\n<td>-</td>\n<td>-</td>\n<td>-</td>\n<td>-</td>\n<td>-</td>\n<td>-</td>\n<td>-</td>\n</tr>\n<tr>\n<td>5</td>\n<td>5</td>\n<td>3</td>\n<td>3</td>\n<td>2</td>\n<td>-</td>\n<td>-</td>\n<td>-</td>\n<td>-</td>\n<td>-</td>\n<td>-</td>\n<td>-</td>\n</tr>\n<tr>\n<td>6</td>\n<td>5</td>\n<td>3</td>\n<td>3</td>\n<td>3</td>\n<td>-</td>\n<td>-</td>\n<td>-</td>\n<td>-</td>\n<td>-</td>\n<td>-</td>\n<td>-</td>\n</tr>\n<tr>\n<td>7</td>\n<td>5</td>\n<td>3</td>\n<td>3</td>\n<td>3</td>\n<td>2</td>\n<td>-</td>\n<td>-</td>\n<td>-</td>\n<td>-</td>\n<td>-</td>\n<td>-</td>\n</tr>\n<tr>\n<td>8</td>\n<td>5</td>\n<td>3</td>\n<td>3</td>\n<td>3</td>\n<td>3</td>\n<td>-</td>\n<td>-</td>\n<td>-</td>\n<td>-</td>\n<td>-</td>\n<td>-</td>\n</tr>\n<tr>\n<td>9</td>\n<td>5</td>\n<td>3</td>\n<td>3</td>\n<td>3</td>\n<td>3</td>\n<td>2</td>\n<td>-</td>\n<td>-</td>\n<td>-</td>\n<td>-</td>\n<td>-</td>\n</tr>\n<tr>\n<td>10</td>\n<td>5</td>\n<td>3</td>\n<td>3</td>\n<td>3</td>\n<td>3</td>\n<td>3</td>\n<td>-</td>\n<td>-</td>\n<td>-</td>\n<td>-</td>\n<td>-</td>\n</tr>\n<tr>\n<td>11</td>\n<td>5</td>\n<td>3</td>\n<td>3</td>\n<td>3</td>\n<td>3</td>\n<td>3</td>\n<td>2</td>\n<td>-</td>\n<td>-</td>\n<td>-</td>\n<td>-</td>\n</tr>\n<tr>\n<td>12</td>\n<td>5</td>\n<td>3</td>\n<td>3</td>\n<td>3</td>\n<td>3</td>\n<td>3</td>\n<td>3</td>\n<td>-</td>\n<td>-</td>\n<td>-</td>\n<td>-</td>\n</tr>\n<tr>\n<td>13</td>\n<td>5</td>\n<td>3</td>\n<td>3</td>\n<td>3</td>\n<td>3</td>\n<td>3</td>\n<td>3</td>\n<td>2</td>\n<td>-</td>\n<td>-</td>\n<td>-</td>\n</tr>\n<tr>\n<td>14</td>\n<td>5</td>\n<td>3</td>\n<td>3</td>\n<td>3</td>\n<td>3</td>\n<td>3</td>\n<td>3</td>\n<td>3</td>\n<td>-</td>\n<td>-</td>\n<td>-</td>\n</tr>\n<tr>\n<td>15</td>\n<td>5</td>\n<td>3</td>\n<td>3</td>\n<td>3</td>\n<td>3</td>\n<td>3</td>\n<td>3</td>\n<td>3</td>\n<td>2</td>\n<td>-</td>\n<td>-</td>\n</tr>\n<tr>\n<td>16</td>\n<td>5</td>\n<td>3</td>\n<td>3</td>\n<td>3</td>\n<td>3</td>\n<td>3</td>\n<td>3</td>\n<td>3</td>\n<td>3</td>\n<td>-</td>\n<td>-</td>\n</tr>\n<tr>\n<td>17</td>\n<td>5</td>\n<td>3</td>\n<td>3</td>\n<td>3</td>\n<td>3</td>\n<td>3</td>\n<td>3</td>\n<td>3</td>\n<td>3</td>\n<td>2</td>\n<td>-</td>\n</tr>\n<tr>\n<td>18</td>\n<td>5</td>\n<td>3</td>\n<td>3</td>\n<td>3</td>\n<td>3</td>\n<td>3</td>\n<td>3</td>\n<td>3</td>\n<td>3</td>\n<td>3</td>\n<td>-</td>\n</tr>\n<tr>\n<td>19</td>\n<td>5</td>\n<td>3</td>\n<td>3</td>\n<td>3</td>\n<td>3</td>\n<td>3</td>\n<td>3</td>\n<td>3</td>\n<td>3</td>\n<td>3</td>\n<td>1*</td>\n</tr>\n<tr>\n<td>20</td>\n<td>5</td>\n<td>3</td>\n<td>3</td>\n<td>3</td>\n<td>3</td>\n<td>3</td>\n<td>3</td>\n<td>3</td>\n<td>3</td>\n<td>3</td>\n<td>1*</td>\n</tr>\n<tr>\n<td style=\"color: white; width: 120px; background-color: #522e2c; text-align: center; height: 25px;\" colspan=\"12\">* The primal hierophant class feature gives you a 10th-level spell slot that works a bit differently from other spell slots.</td>\n</tr>\n</tbody>\n</table>\n<h2>Shield Block</h2>\n<p style=\"box-sizing: border-box; user-select: text; color: #191813;\">You gain the @Compendium[pf2e.feats-srd.Shield Block]{Shield Block} general feat, a reaction that lets you reduce damage with your shield.</p>\n<h2>Wild Empathy</h2>\n<p style=\"box-sizing: border-box; user-select: text; color: #191813;\">You have a connection to the creatures of the natural world that allows you to communicate with them on a rudimentary level. You can use Diplomacy to Make an Impression on animals and to make very simple Requests of them. In most cases, wild animals will give you time to make your case.</p>\n<h2>Druid Feats<span style=\"float: right;\">Level 2</span></h2>\n<p style=\"box-sizing: border-box; user-select: text; color: #191813;\">At 2nd level and every even-numbered level, you gain a druid class feat.</p>\n<h2>Skill Feats<span style=\"float: right;\">Level 2</span></h2>\n<p style=\"box-sizing: border-box; user-select: text; color: #191813;\">At 2nd level and every 2 levels thereafter, you gain a skill feat. Skill feats appear in Chapter 5 and have the skill trait. You must be trained or better in the corresponding skill to select a skill feat.</p>\n<h2>Alertness<span style=\"float: right;\">Level 3</span></h2>\n<p style=\"box-sizing: border-box; user-select: text; color: #191813;\">Experience has made you increasingly aware of threats around you, and you react more quickly to danger. Your proficiency rank for Perception increases to expert.</p>\n<h2>General Feats<span style=\"float: right;\">Level 3</span></h2>\n<p style=\"box-sizing: border-box; user-select: text; color: #191813;\">At 3rd level and every 4 levels thereafter, you gain a general feat. General feats are listed in Chapter 5.</p>\n<h2>Great Fortitude<span style=\"float: right;\">Level 3</span></h2>\n<p style=\"box-sizing: border-box; user-select: text; color: #191813;\">Your physique is incredibly hardy. Your proficiency rank for Fortitude saves increases to expert.</p>\n<h2>Skill Increases<span style=\"float: right;\">Level 3</span></h2>\n<p style=\"box-sizing: border-box; user-select: text; color: #191813;\">At 3rd level and every 2 levels thereafter, you gain a skill increase. You can use this increase either to increase your proficiency rank to trained in one skill you're untrained in, or to increase your proficiency rank in one skill in which you're already trained to expert.</p>\n<p style=\"box-sizing: border-box; user-select: text; color: #191813;\">At 7th level, you can use skill increases to increase your proficiency rank to master in a skill in which you're already an expert, and at 15th level, you can use them to increase your proficiency rank to legendary in a skill in which you're already a master.</p>\n<h2>Ability Boosts<span style=\"float: right;\">Level 5</span></h2>\n<p style=\"box-sizing: border-box; user-select: text; color: #191813;\">At 5th level and every 5 levels thereafter, you boost four different ability scores. You can use these ability boosts to increase your ability scores above 18. Boosting an ability score increases it by 1 if it's already 18 or above, or by 2 if it starts out below 18.</p>\n<h2>Ancestry Feats<span style=\"float: right;\">Level 5</span></h2>\n<p style=\"box-sizing: border-box; user-select: text; color: #191813;\">In addition to the ancestry feat you started with, you gain an ancestry feat at 5th level and every 4 levels thereafter. The list of ancestry feats available to you can be found in your ancestry's entry in Chapter 2.</p>\n<h2>Lightning Reflexes<span style=\"float: right;\">Level 5</span></h2>\n<p style=\"box-sizing: border-box; user-select: text; color: #191813;\">Your reflexes are lightning fast. Your proficiency rank for Reflex saves increases to expert.</p>\n<h2>Expert Spellcaster<span style=\"float: right;\">Level 7</span></h2>\n<p style=\"box-sizing: border-box; user-select: text; color: #191813;\">Your command of primal forces has deepened, empowering your spells. Your proficiency ranks for primal spell attack rolls and spell DCs increase to expert.</p>\n<h2>Druid Weapon Expertise<span style=\"float: right;\">Level 11</span></h2>\n<p style=\"box-sizing: border-box; user-select: text; color: #191813;\">You have become thoroughly familiar with the weapons of your trade. Your proficiency ranks for all simple weapons and unarmed attacks increase to expert.</p>\n<h2>Resolve<span style=\"float: right;\">Level 11</span></h2>\n<p style=\"box-sizing: border-box; user-select: text; color: #191813;\">You've steeled your mind with incredible resolve. Your proficiency rank for Will saves increases to master. When you roll a success at a Will save, you get a critical success instead.</p>\n<h2>Medium Armor Expertise<span style=\"float: right;\">Level 13</span></h2>\n<p style=\"box-sizing: border-box; user-select: text; color: #191813;\">You've learned to defend yourself better against attacks. Your proficiency ranks for light armor, medium armor, and unarmored defense increase to expert.</p>\n<h2>Weapon Specialization<span style=\"float: right;\">Level 13</span></h2>\n<p style=\"box-sizing: border-box; user-select: text; color: #191813;\">You've learned how to inflict greater injuries with the weapons you know best. You deal 2 additional damage with weapons and unarmed attacks in which you are an expert. This damage increases to 3 if you're a master, and to 4 if you're legendary.</p>\n<h2>Master Spellcaster<span style=\"float: right;\">Level 15</span></h2>\n<p style=\"box-sizing: border-box; user-select: text; color: #191813;\">Primal magic answers your command. Your proficiency ranks for primal spell attack rolls and spell DCs increase to master.</p>\n<h2>Legendary Spellcaster<span style=\"float: right;\">Level 19</span></h2>\n<p style=\"box-sizing: border-box; user-select: text; color: #191813;\">You have developed an unparalleled rapport with the magic of nature. Your proficiency ranks for primal spell attack rolls and spell DCs increase to legendary.</p>\n<h2>Primal Hierophant<span style=\"float: right;\">Level 19</span></h2>\n<p style=\"box-sizing: border-box; user-select: text; color: #191813;\">You command the most potent forces of primal magic and can cast a spell of truly incredible power. You gain a single 10th-level spell slot and can prepare a spell in that slot using primal spellcasting. Unlike with other spell slots, you don't gain more 10th-level spells as you level up, though you can take the @Compendium[pf2e.feats-srd.Hierophant's Power]{Hierophant's Power} feat to gain a second slot.</p>"
        },
        "generalFeatLevels": {
            "value": [
                3,
                7,
                11,
                15,
                19
            ]
        },
        "hp": 8,
        "items": {
            "3nzxp": {
                "id": "rz87RgR1crWTd7j5",
                "img": "systems/pf2e/icons/features/classes/lightning-reflexes.jpg",
                "level": 5,
                "name": "Lightning Reflexes (Level 5)",
                "pack": "pf2e.classfeatures"
            },
            "426dn": {
                "id": "Ra32tlqBxHzT6fzN",
                "img": "systems/pf2e/icons/features/classes/druid-weapon-expertise.jpg",
                "level": "11",
                "name": "Druid Weapon Expertise",
                "pack": "pf2e.classfeatures"
            },
            "5borr": {
                "id": "vv63fioCtOvDIdF2",
                "img": "systems/pf2e/icons/features/classes/resolve.jpg",
                "level": 11,
                "name": "Resolve (Level 11)",
                "pack": "pf2e.classfeatures"
            },
            "5zf6s": {
                "id": "nfBn8QB6HVdzpTFV",
                "img": "systems/pf2e/icons/features/classes/anathema(druid).jpg",
                "level": "1",
                "name": "Anathema (Druid)",
                "pack": "pf2e.classfeatures"
            },
            "6cq7c": {
                "id": "tzUaTqB6GHAeffOl",
                "img": "systems/pf2e/icons/features/classes/medium-armor-expertise.jpg",
                "level": 13,
                "name": "Medium Armor Expertise (Level 13)",
                "pack": "pf2e.classfeatures"
            },
            "80cqf": {
                "id": "d5BFFHXFJYKs5LXr",
                "img": "systems/pf2e/icons/features/classes/wild-empathy.jpg",
                "level": "1",
                "name": "Wild Empathy",
                "pack": "pf2e.classfeatures"
            },
            "ai1ej": {
                "id": "RiAGlnnp4S21BAG3",
                "img": "systems/pf2e/icons/features/classes/druidic-language.jpg",
                "level": "1",
                "name": "Druidic Language",
                "pack": "pf2e.classfeatures"
            },
            "bic0m": {
                "id": "l1InYvhnQSz6Ucxc",
                "img": "systems/pf2e/icons/features/classes/master-spellcaster.jpg",
                "level": 15,
                "name": "Master Spellcaster (Level 15)",
                "pack": "pf2e.classfeatures"
            },
            "cfonk": {
                "id": "F57Na5VxfBp56kke",
                "img": "systems/pf2e/icons/features/classes/great-fortitude.jpg",
                "level": 3,
                "name": "Great Fortitude (Level 3)",
                "pack": "pf2e.classfeatures"
            },
            "ibknd": {
                "id": "D8CSi8c9XiRpVc5M",
                "img": "systems/pf2e/icons/features/classes/alertness.jpg",
                "level": 3,
                "name": "Alertness (Level 3)",
                "pack": "pf2e.classfeatures"
            },
            "ifwyc": {
                "id": "Hfaa7TuLn3nE8lr3",
                "img": "systems/pf2e/icons/features/classes/legendary-spellcaster.jpg",
                "level": 19,
                "name": "Legendary Spellcaster (Level 19)",
                "pack": "pf2e.classfeatures"
            },
            "ixkp9": {
                "id": "eZNCckLzbH3GyncH",
                "img": "systems/pf2e/icons/features/classes/shield-block.jpg",
                "level": 1,
                "name": "Shield Block (Level 1)",
                "pack": "pf2e.classfeatures"
            },
            "jfaqa": {
                "id": "1NGTc0gqEtwaFqUK",
                "img": "systems/pf2e/icons/features/classes/weapon-specialization.jpg",
                "level": 13,
                "name": "Weapon Specialization (Level 13)",
                "pack": "pf2e.classfeatures"
            },
            "pes7d": {
                "id": "8STJEFVJISujgpMR",
                "img": "systems/pf2e/icons/default-icons/feat.svg",
                "level": 1,
                "name": "Druidic Order",
                "pack": "pf2e.classfeatures"
            },
            "qvz7x": {
                "id": "b8pnRxGuNzG0buuh",
                "img": "systems/pf2e/icons/features/classes/primal-spellcasting.jpg",
                "level": "1",
                "name": "Primal Spellcasting",
                "pack": "pf2e.classfeatures"
            },
            "ycbpi": {
                "id": "cD3nSupdCvONuHiE",
                "img": "systems/pf2e/icons/features/classes/expert-spellcaster.jpg",
                "level": 7,
                "name": "Expert Spellcaster (Level 7)",
                "pack": "pf2e.classfeatures"
            },
            "zird8": {
                "id": "nzgb43mQmLgaqDoQ",
                "img": "systems/pf2e/icons/features/classes/primal-hierophant.jpg",
                "level": "19",
                "name": "Primal Hierophant",
                "pack": "pf2e.classfeatures"
            }
        },
        "keyAbility": {
            "value": [
                "wis"
            ]
        },
        "perception": 1,
        "rules": [],
        "savingThrows": {
            "fortitude": 1,
            "reflex": 1,
            "will": 2
        },
        "skillFeatLevels": {
            "value": [
                2,
                4,
                6,
                8,
                10,
                12,
                14,
                16,
                18,
                20
            ]
        },
        "skillIncreaseLevels": {
            "value": [
                3,
                5,
                7,
                9,
                11,
                13,
                15,
                17,
                19
            ]
        },
        "source": {
            "value": ""
        },
        "trainedSkills": {
            "additional": 3,
            "value": [
                "nat"
            ]
        },
        "traits": {
            "custom": "",
            "rarity": {
                "value": "common"
            },
            "value": []
        }
    },
    "effects": [
        {
            "_id": "LzxAzf1JqgUoZs6G",
            "changes": [
                {
                    "key": "data.attributes.perception.rank",
                    "mode": 4,
                    "value": 1
                },
                {
                    "key": "data.saves.fortitude.rank",
                    "mode": 4,
                    "value": 1
                },
                {
                    "key": "data.saves.reflex.rank",
                    "mode": 4,
                    "value": 1
                },
                {
                    "key": "data.saves.will.rank",
                    "mode": 4,
                    "value": 2
                },
                {
                    "key": "data.skills.nat.rank",
                    "mode": 4,
                    "value": 1
                },
                {
                    "key": "data.martial.simple.rank",
                    "mode": 4,
                    "value": 1
                },
                {
                    "key": "data.martial.unarmed.rank",
                    "mode": 4,
                    "value": 1
                },
                {
                    "key": "data.martial.unarmored.rank",
                    "mode": 4,
                    "value": 1
                },
                {
                    "key": "data.martial.medium.rank",
                    "mode": 4,
                    "value": 1
                },
                {
                    "key": "data.martial.light.rank",
                    "mode": 4,
                    "value": 1
                }
            ],
            "disabled": false,
            "duration": {
                "rounds": null,
                "seconds": null,
                "startRound": null,
                "startTime": null,
                "startTurn": null,
                "turns": null
            },
            "flags": {},
            "icon": "systems/pf2e/icons/classes/druid.webp",
            "label": "Initial Proficiencies",
            "origin": "",
            "tint": "",
            "transfer": true
        },
        {
            "_id": "lzTq4LzxGCc5vIji",
            "changes": [
                {
                    "key": "data.details.keyability.value",
                    "mode": 5,
                    "value": "wis"
                }
            ],
            "disabled": false,
            "duration": {
                "rounds": null,
                "seconds": null,
                "startRound": null,
                "startTime": null,
                "startTurn": null,
                "turns": null
            },
            "flags": {},
            "icon": "systems/pf2e/icons/classes/druid.webp",
            "label": "Key Ability",
            "origin": "",
            "tint": "",
            "transfer": true
        }
    ],
    "flags": {},
    "img": "systems/pf2e/icons/classes/druid.webp",
    "name": "Druid",
    "permission": {
        "default": 0
    },
    "type": "class"
}
