{
    "_id": "2MIn8qyPTmz4ZyO1",
    "data": {
        "description": {
            "value": "<p>Granted by @Compendium[pf2e.feats-srd.Smite Good]{Smite Good}.</p>\n<p>Until the start of your next turn, your Strikes against that foe using the weapon your blade ally inhabits deal an extra 4 evil damage, increasing to 6 if you have master proficiency with this weapon.</p>\n<p>If the chosen enemy attacks you before the start of your next turn, the duration extends to the end of that enemy's next turn. If the enemy continues to attack you each turn, the duration continues to extend.</p>"
        },
        "duration": {
            "expiry": "turn-start",
            "sustained": false,
            "unit": "rounds",
            "value": 1
        },
        "level": {
            "value": 6
        },
        "rules": [
            {
                "key": "PF2E.RuleElement.TokenEffectIcon"
            },
            {
                "key": "PF2E.RuleElement.ToggleProperty",
                "label": "Target is subject of your Smite Good",
                "property": "flags.pf2e.rollOptions.damage-roll.smite-good"
            },
            {
                "damageType": "evi;",
                "key": "PF2E.RuleElement.FlatModifier",
                "label": "Smite Good",
                "name": "smite-not-master",
                "predicate": {
                    "all": [
                        "smite-good"
                    ],
                    "not": [
                        "proficiency:master",
                        "proficiency:legendary"
                    ]
                },
                "selector": "damage",
                "value": 4
            },
            {
                "damageType": "evi;",
                "key": "PF2E.RuleElement.FlatModifier",
                "label": "Smite Good",
                "name": "smite-master",
                "predicate": {
                    "all": [
                        "smite-good"
                    ],
                    "any": [
                        "proficiency:master",
                        "proficiency:legendary"
                    ]
                },
                "selector": "damage",
                "value": 6
            }
        ],
        "source": {
            "value": ""
        },
        "start": {
            "initiative": null,
            "value": 0
        },
        "target": null,
        "traits": {
            "custom": "",
            "rarity": {
                "value": "common"
            },
            "value": []
        }
    },
    "effects": [],
    "flags": {},
    "img": "systems/pf2e/icons/spells/commanding-lash.jpg",
    "name": "Effect: Smite Good",
    "permission": {
        "default": 0
    },
    "type": "effect"
}
