{
    "_id": "MNkIxAishE22TqL3",
    "data": {
        "description": {
            "value": "<p>Granted by @Compendium[pf2e.feats-srd.Aura Of Despair]{Aura Of Despair}</p>\n<p>Enemies within 15 of you take a -1 circumstance penalty to saving throws against fear.</p>"
        },
        "duration": {
            "expiry": "turn-start",
            "sustained": false,
            "unit": "unlimited",
            "value": -1
        },
        "level": {
            "value": 4
        },
        "rules": [
            {
                "key": "PF2E.RuleElement.TokenEffectIcon"
            },
            {
                "key": "PF2E.RuleElement.FlatModifier",
                "label": "Aura of Despair (vs. fear)",
                "predicate": {
                    "all": [
                        "fear"
                    ]
                },
                "selector": "saving-throw",
                "type": "circumstance",
                "value": -1
            }
        ],
        "source": {
            "value": ""
        },
        "start": {
            "initiative": null,
            "value": 0
        },
        "target": null,
        "traits": {
            "custom": "",
            "rarity": {
                "value": "common"
            },
            "value": []
        }
    },
    "effects": [],
    "flags": {},
    "img": "systems/pf2e/icons/spells/destructive-aura.jpg",
    "name": "Effect: Aura of Despair",
    "permission": {
        "default": 0
    },
    "type": "effect"
}
